<?xml version="1.0" encoding="UTF-8"?>
<session version="1.0">
<refactoring comment="Delete resource &apos;exceptions&apos;" deleteContents="true" description="Delete resource &apos;exceptions&apos;" element1="/exceptions" flags="7" id="org.eclipse.ltk.core.refactoring.delete.resources" resources="1" stamp="1339062621668"/>
</session>