what,kind,bundleId,bundleVersion,description,time
stopped,bundle,org.eclipse.birt.data,3.7.2.v20120213,"org.eclipse.birt.data",1345730386229
stopped,bundle,org.eclipse.birt.core,3.7.2.v20120213,"org.eclipse.birt.core",1345730386230
stopped,bundle,org.eclipse.cdt.build.crossgcc,1.0.2.201202111925,"org.eclipse.cdt.build.crossgcc",1345730386231
stopped,bundle,org.eclipse.cdt.codan.checkers.ui,1.0.0.201202111925,"org.eclipse.cdt.codan.checkers.ui",1345730386232
stopped,bundle,org.eclipse.cdt.codan.checkers,1.0.1.201202111925,"org.eclipse.cdt.codan.checkers",1345730386233
stopped,bundle,org.eclipse.cdt.codan.ui.cxx,2.0.0.201202111925,"org.eclipse.cdt.codan.ui.cxx",1345730386234
stopped,bundle,org.eclipse.cdt.codan.core.cxx,1.0.0.201202111925,"org.eclipse.cdt.codan.core.cxx",1345730386235
stopped,bundle,org.eclipse.cdt.launch.remote,2.3.0.201202111925,"org.eclipse.cdt.launch.remote",1345730386235
stopped,bundle,org.eclipse.cdt.debug.mi.ui,6.1.1.201202111925,"org.eclipse.cdt.debug.mi.ui",1345730386236
stopped,bundle,org.eclipse.cdt.debug.mi.core,7.1.1.201202111925,"org.eclipse.cdt.debug.mi.core",1345730386238
stopped,bundle,org.eclipse.cdt.debug.ui.memory.memorybrowser,1.2.100.201202111925,"org.eclipse.cdt.debug.ui.memory.memorybrowser",1345730386238
stopped,bundle,org.eclipse.cdt.debug.ui.memory.search,1.2.1.201202111925,"org.eclipse.cdt.debug.ui.memory.search",1345730386239
stopped,bundle,org.eclipse.cdt.dsf.gdb.ui,2.2.1.201202111925,"org.eclipse.cdt.dsf.gdb.ui",1345730386240
stopped,bundle,org.eclipse.cdt.dsf.ui,2.2.1.201202111925,"org.eclipse.cdt.dsf.ui",1345730386241
stopped,bundle,org.eclipse.cdt.gdb.ui,7.0.0.201202111925,"org.eclipse.cdt.gdb.ui",1345730386242
stopped,bundle,org.eclipse.cdt.dsf.gdb,4.0.2.201202111925,"org.eclipse.cdt.dsf.gdb",1345730386244
stopped,bundle,org.eclipse.linuxtools.callgraph.launch,0.9.0.201202152032,"org.eclipse.linuxtools.callgraph.launch",1345730386244
stopped,bundle,org.eclipse.linuxtools.oprofile.launch,0.3.1.201202152032,"org.eclipse.linuxtools.oprofile.launch",1345730386245
stopped,bundle,org.eclipse.linuxtools.valgrind.cachegrind,0.9.0.201202152032,"org.eclipse.linuxtools.valgrind.cachegrind",1345730386246
stopped,bundle,org.eclipse.linuxtools.valgrind.helgrind,0.9.0.201202152032,"org.eclipse.linuxtools.valgrind.helgrind",1345730386247
stopped,bundle,org.eclipse.linuxtools.valgrind.memcheck,0.9.0.201202152032,"org.eclipse.linuxtools.valgrind.memcheck",1345730386248
stopped,bundle,org.eclipse.linuxtools.valgrind.launch,0.9.0.201202152032,"org.eclipse.linuxtools.valgrind.launch",1345730386249
stopped,bundle,org.eclipse.linuxtools.profiling.launch,0.9.0.201202152032,"org.eclipse.linuxtools.profiling.launch",1345730386250
stopped,bundle,org.eclipse.cdt.launch,7.0.0.201202111925,"org.eclipse.cdt.launch",1345730386251
stopped,bundle,org.eclipse.linuxtools.valgrind.ui,0.9.0.201202152032,"org.eclipse.linuxtools.valgrind.ui",1345730386251
stopped,bundle,org.eclipse.cdt.debug.ui,7.1.2.201202111925,"org.eclipse.cdt.debug.ui",1345730386253
stopped,bundle,org.eclipse.cdt.debug.ui.memory.traditional,1.2.1.201202111925,"org.eclipse.cdt.debug.ui.memory.traditional",1345730386253
stopped,bundle,org.eclipse.cdt.dsf,2.2.0.201202111925,"org.eclipse.cdt.dsf",1345730386254
stopped,bundle,org.eclipse.linuxtools.binutils,4.0.0.201202152032,"org.eclipse.linuxtools.binutils",1345730386255
stopped,bundle,org.eclipse.linuxtools.callgraph,0.9.0.201202152032,"org.eclipse.linuxtools.callgraph",1345730386256
stopped,bundle,org.eclipse.linuxtools.callgraph.core,0.9.0.201202152032,"org.eclipse.linuxtools.callgraph.core",1345730386257
stopped,bundle,org.eclipse.linuxtools.oprofile.ui,0.3.1.201202152032,"org.eclipse.linuxtools.oprofile.ui",1345730386257
stopped,bundle,org.eclipse.linuxtools.profiling.ui,0.9.0.201202152032,"org.eclipse.linuxtools.profiling.ui",1345730386258
stopped,bundle,org.eclipse.cdt.debug.core,7.1.0.201202111925,"org.eclipse.cdt.debug.core",1345730386259
stopped,bundle,org.eclipse.linuxtools.cdt.autotools.ui,1.0.1.201202152032,"org.eclipse.linuxtools.cdt.autotools.ui",1345730386260
stopped,bundle,org.eclipse.linuxtools.cdt.autotools.core,1.0.2.201202152032,"org.eclipse.linuxtools.cdt.autotools.core",1345730386261
stopped,bundle,org.eclipse.cdt.managedbuilder.ui,8.0.2.201202111925,"org.eclipse.cdt.managedbuilder.ui",1345730386262
stopped,bundle,org.eclipse.cdt.make.ui,7.1.2.201202111925,"org.eclipse.cdt.make.ui",1345730386262
stopped,bundle,org.eclipse.cdt.managedbuilder.gnu.ui,8.0.2.201202111925,"org.eclipse.cdt.managedbuilder.gnu.ui",1345730386263
stopped,bundle,org.eclipse.cdt.managedbuilder.core,8.0.2.201202111925,"org.eclipse.cdt.managedbuilder.core",1345730386279
stopped,bundle,org.eclipse.cdt.make.core,7.1.2.201202111925,"org.eclipse.cdt.make.core",1345730386279
stopped,bundle,org.eclipse.cdt.mylyn.ui,3.6.0.v20110608-1400,"org.eclipse.cdt.mylyn.ui",1345730386280
stopped,bundle,org.eclipse.cdt.codan.ui,2.0.1.201202111925,"org.eclipse.cdt.codan.ui",1345730386281
stopped,bundle,org.eclipse.linuxtools.cdt.libhover,1.1.0.201202152032,"org.eclipse.linuxtools.cdt.libhover",1345730386321
stopped,bundle,org.eclipse.linuxtools.rpm.rpmlint,0.4.3.201202152032,"org.eclipse.linuxtools.rpm.rpmlint",1345730386322
stopped,bundle,org.eclipse.linuxtools.rpm.ui.editor,0.4.3.201202152032,"org.eclipse.linuxtools.rpm.ui.editor",1345730386323
stopped,bundle,org.eclipse.linuxtools.changelog.core,2.7.0.201202152032,"org.eclipse.linuxtools.changelog.core",1345730386324
stopped,bundle,org.eclipse.linuxtools.dataviewers.annotatedsourceeditor,4.1.0.201202152032,"org.eclipse.linuxtools.dataviewers.annotatedsourceeditor",1345730386325
stopped,bundle,org.eclipse.cdt.ui,5.3.2.201202111925,"org.eclipse.cdt.ui",1345730386325
stopped,bundle,org.eclipse.linuxtools.valgrind.core,0.9.0.201202152032,"org.eclipse.linuxtools.valgrind.core",1345730386326
stopped,bundle,org.eclipse.cdt.core,5.3.2.201202111925,"org.eclipse.cdt.core",1345730386327
stopped,bundle,org.eclipse.egit.ui,1.3.0.201202151440-r,"org.eclipse.egit.ui",1345730386328
stopped,bundle,org.eclipse.egit.core,1.3.0.201202151440-r,"org.eclipse.egit.core",1345730386328
stopped,bundle,org.eclipse.equinox.p2.ui.sdk,1.0.200.v20110815-1419,"org.eclipse.equinox.p2.ui.sdk",1345730386328
stopped,bundle,de.loskutov.BytecodeOutline,2.4.0,"de.loskutov.BytecodeOutline",1345730386329
stopped,bundle,de.loskutov.anyedit.AnyEditTools,2.4.1.201204040004,"de.loskutov.anyedit.AnyEditTools",1345730386329
stopped,bundle,com.collabnet.subversion.merge,3.0.8,"com.collabnet.subversion.merge",1345730386329
stopped,bundle,org.tigris.subversion.subclipse.mylyn,3.0.0,"org.tigris.subversion.subclipse.mylyn",1345730386329
stopped,bundle,org.tigris.subversion.subclipse.tools.usage,1.1.0,"org.tigris.subversion.subclipse.tools.usage",1345730386329
stopped,bundle,org.tigris.subversion.subclipse.ui,1.8.8,"org.tigris.subversion.subclipse.ui",1345730386329
stopped,bundle,ar.com.tadp.xml.rinzo.jdt,1.0.0,"ar.com.tadp.xml.rinzo.jdt",1345730386330
stopped,bundle,com.instantiations.assist.eclipse.analysis.dependency.ui,7.1.0.r37x201109091206,"com.instantiations.assist.eclipse.analysis.dependency.ui",1345730386331
stopped,bundle,com.instantiations.assist.eclipse.doc,7.1.0.r37x201109091206,"com.instantiations.assist.eclipse.doc",1345730386332
stopped,bundle,com.instantiations.eclipse.analysis.audit.webservices.ui,7.1.0.r37x201109091206,"com.instantiations.eclipse.analysis.audit.webservices.ui",1345730386333
stopped,bundle,com.instantiations.eclipse.analysis.spelling,7.1.0.r37x201109091206,"com.instantiations.eclipse.analysis.spelling",1345730386334
stopped,bundle,com.instantiations.eclipse.analysis.team.ui,7.1.0.r37x201109091206,"com.instantiations.eclipse.analysis.team.ui",1345730386334
stopped,bundle,com.instantiations.eclipse.analysis.ui.audit.spring,7.1.0.r37x201109091206,"com.instantiations.eclipse.analysis.ui.audit.spring",1345730386335
stopped,bundle,com.instantiations.eclipse.analysis.ui.audit.struts,7.1.0.r37x201109091206,"com.instantiations.eclipse.analysis.ui.audit.struts",1345730386336
stopped,bundle,com.instantiations.assist.eclipse.analysis.ui,7.1.0.r37x201109091206,"com.instantiations.assist.eclipse.analysis.ui",1345730386339
stopped,bundle,com.instantiations.eclipse.analysis.deadcode.ui,7.1.0.r37x201109091206,"com.instantiations.eclipse.analysis.deadcode.ui",1345730386340
stopped,bundle,org.eclipse.pde.api.tools.ui,1.0.301.v20110803_r371,"org.eclipse.pde.api.tools.ui",1345730386341
stopped,bundle,org.eclipse.pde.ds.ui,1.0.100.v20111213-1754,"org.eclipse.pde.ds.ui",1345730386342
stopped,bundle,org.eclipse.pde.runtime,3.4.201.v20110928-1516,"org.eclipse.pde.runtime",1345730386343
stopped,bundle,org.eclipse.pde.ua.ui,1.0.100.v20110516,"org.eclipse.pde.ua.ui",1345730386344
stopped,bundle,org.eclipse.pde.ui.templates,3.4.400.v20110928-1516,"org.eclipse.pde.ui.templates",1345730386345
stopped,bundle,org.eclipse.pde.ui,3.6.100.v20120103_r372,"org.eclipse.pde.ui",1345730386347
stopped,bundle,org.eclipse.ant.ui,3.5.101.v20120110-1739,"org.eclipse.ant.ui",1345730386349
stopped,bundle,org.eclipse.jdt.apt.ui,3.3.300.v20110305-1450,"org.eclipse.jdt.apt.ui",1345730386350
stopped,bundle,com.instantiations.assist.eclipse.junit.editor,7.1.0.r37x201109091155,"com.instantiations.assist.eclipse.junit.editor",1345730386350
stopped,bundle,org.eclipse.jdt.junit,3.7.0.v20110928-1453,"org.eclipse.jdt.junit",1345730386351
stopped,bundle,com.instantiations.eclipse.coverage.codepro.ui,7.1.0.r37x201109091140,"com.instantiations.eclipse.coverage.codepro.ui",1345730386352
stopped,bundle,com.instantiations.assist.eclipse.coverage.ui,7.1.0.r37x201109091130,"com.instantiations.assist.eclipse.coverage.ui",1345730386353
stopped,bundle,org.eclipse.jdt.debug.ui,3.6.1.v20111006_r372,"org.eclipse.jdt.debug.ui",1345730386354
stopped,bundle,com.instantiations.assist.eclipse.ant.ui.task,7.1.0.r37x201109091147,"com.instantiations.assist.eclipse.ant.ui.task",1345730386355
stopped,bundle,com.instantiations.eclipse.junit.ejb3,7.1.0.r37x201109091155,"com.instantiations.eclipse.junit.ejb3",1345730386355
stopped,bundle,com.instantiations.eclipse.junit.jsf,7.1.0.r37x201109091155,"com.instantiations.eclipse.junit.jsf",1345730386356
stopped,bundle,com.instantiations.eclipse.junit.spring,7.1.0.r37x201109091155,"com.instantiations.eclipse.junit.spring",1345730386357
stopped,bundle,com.instantiations.eclipse.junit.struts2,7.1.0.r37x201109091155,"com.instantiations.eclipse.junit.struts2",1345730386357
stopped,bundle,com.instantiations.assist.eclipse.junit,7.1.0.r37x201109091155,"com.instantiations.assist.eclipse.junit",1345730386358
stopped,bundle,com.instantiations.eclipse.analysis.similarcode.help,7.1.0.r37x201109091143,"com.instantiations.eclipse.analysis.similarcode.help",1345730386359
stopped,bundle,com.instantiations.assist.eclipse,7.1.0.r37x201109091135,"com.instantiations.assist.eclipse",1345730386360
stopped,bundle,com.instantiations.assist.eclipse.admin,7.1.0.r37x201109091135,"com.instantiations.assist.eclipse.admin",1345730386360
stopped,bundle,com.instantiations.assist.eclipse.ant.ui,7.1.0.r37x201109091147,"com.instantiations.assist.eclipse.ant.ui",1345730386361
stopped,bundle,com.instantiations.assist.eclipse.javadoc,7.1.0.r37x201109091206,"com.instantiations.assist.eclipse.javadoc",1345730386362
stopped,bundle,com.instantiations.assist.eclipse.pattern,7.1.0.r37x201109091135,"com.instantiations.assist.eclipse.pattern",1345730386363
stopped,bundle,com.instantiations.assist.eclipse.scheduler,7.1.0.r37x201109091135,"com.instantiations.assist.eclipse.scheduler",1345730386363
stopped,bundle,com.instantiations.eclipse.analysis.similarcode.ui,7.1.0.r37x201109091143,"com.instantiations.eclipse.analysis.similarcode.ui",1345730386364
stopped,bundle,com.instantiations.eclipse.mail.ui,7.1.0.r37x201109091135,"com.instantiations.eclipse.mail.ui",1345730386365
stopped,bundle,com.instantiations.swt.grid,7.1.0.r37x201109091155,"com.instantiations.swt.grid",1345730386366
stopped,bundle,com.instantiations.assist.eclipse.core.ui,7.1.0.r37x201109091135,"com.instantiations.assist.eclipse.core.ui",1345730386366
stopped,bundle,com.instantiations.eclipse.analysis.similarcode,7.1.0.r37x201109091143,"com.instantiations.eclipse.analysis.similarcode",1345730386367
stopped,bundle,com.instantiations.eclipse.analysis.utilities.ui,7.1.0.r37x201109091123,"com.instantiations.eclipse.analysis.utilities.ui",1345730386367
stopped,bundle,com.instantiations.assist.eclipse.analysis.ant,7.1.0.r37x201109091206,"com.instantiations.assist.eclipse.analysis.ant",1345730386368
activated,perspective,org.eclipse.jdt.ui,,"org.eclipse.jdt.ui.JavaPerspective",1345730516928
started,bundle,org.eclipse.osgi,3.7.2.v20120110-1415,"org.eclipse.osgi",1345730516929
started,bundle,org.eclipse.equinox.simpleconfigurator,1.0.200.v20110815-1438,"org.eclipse.equinox.simpleconfigurator",1345730516930
started,bundle,com.ibm.icu,4.4.2.v20110823,"com.ibm.icu",1345730516930
started,bundle,org.eclipse.cdt.codan.checkers,1.0.1.201202111925,"org.eclipse.cdt.codan.checkers",1345730516930
started,bundle,org.eclipse.cdt.codan.core,2.0.0.201202111925,"org.eclipse.cdt.codan.core",1345730516930
started,bundle,org.eclipse.cdt.codan.core.cxx,1.0.0.201202111925,"org.eclipse.cdt.codan.core.cxx",1345730516930
started,bundle,org.eclipse.cdt.codan.ui.cxx,2.0.0.201202111925,"org.eclipse.cdt.codan.ui.cxx",1345730516931
started,bundle,org.eclipse.cdt.core,5.3.2.201202111925,"org.eclipse.cdt.core",1345730516931
started,bundle,org.eclipse.cdt.make.core,7.1.2.201202111925,"org.eclipse.cdt.make.core",1345730516931
started,bundle,org.eclipse.cdt.make.ui,7.1.2.201202111925,"org.eclipse.cdt.make.ui",1345730516931
started,bundle,org.eclipse.cdt.managedbuilder.core,8.0.2.201202111925,"org.eclipse.cdt.managedbuilder.core",1345730516931
started,bundle,org.eclipse.cdt.ui,5.3.2.201202111925,"org.eclipse.cdt.ui",1345730516931
started,bundle,org.eclipse.compare,3.5.202.R37x_v20111109-0800,"org.eclipse.compare",1345730516931
started,bundle,org.eclipse.compare.core,3.5.200.I20110208-0800,"org.eclipse.compare.core",1345730516932
started,bundle,org.eclipse.core.contenttype,3.4.100.v20110423-0524,"org.eclipse.core.contenttype",1345730516932
started,bundle,org.eclipse.core.databinding.observable,1.4.0.I20110222-0800,"org.eclipse.core.databinding.observable",1345730516932
started,bundle,org.eclipse.core.expressions,3.4.300.v20110228,"org.eclipse.core.expressions",1345730516933
started,bundle,org.eclipse.core.filebuffers,3.5.200.v20110928-1504,"org.eclipse.core.filebuffers",1345730516933
started,bundle,org.eclipse.core.filesystem,1.3.100.v20110423-0524,"org.eclipse.core.filesystem",1345730516933
started,bundle,org.eclipse.core.jobs,3.5.101.v20120113-1953,"org.eclipse.core.jobs",1345730516933
started,bundle,org.eclipse.core.net,1.2.100.I20110511-0800,"org.eclipse.core.net",1345730516933
started,bundle,org.eclipse.core.resources,3.7.101.v20120125-1505,"org.eclipse.core.resources",1345730516933
started,bundle,org.eclipse.core.runtime,3.7.0.v20110110,"org.eclipse.core.runtime",1345730516933
started,bundle,org.eclipse.core.runtime.compatibility,3.2.100.v20100505,"org.eclipse.core.runtime.compatibility",1345730516934
started,bundle,org.eclipse.core.runtime.compatibility.auth,3.2.200.v20110110,"org.eclipse.core.runtime.compatibility.auth",1345730516934
started,bundle,org.eclipse.debug.core,3.7.1.v20111129-2031,"org.eclipse.debug.core",1345730516934
started,bundle,org.eclipse.ecf,3.1.300.v20110531-2218,"org.eclipse.ecf",1345730516934
started,bundle,org.eclipse.ecf.filetransfer,5.0.0.v20110531-2218,"org.eclipse.ecf.filetransfer",1345730516934
started,bundle,org.eclipse.ecf.identity,3.1.100.v20110531-2218,"org.eclipse.ecf.identity",1345730516934
started,bundle,org.eclipse.ecf.provider.filetransfer,3.2.0.v20110531-2218,"org.eclipse.ecf.provider.filetransfer",1345730516934
started,bundle,org.eclipse.ecf.provider.filetransfer.httpclient,4.0.0.v20110531-2218,"org.eclipse.ecf.provider.filetransfer.httpclient",1345730516934
started,bundle,org.eclipse.egit.core,1.3.0.201202151440-r,"org.eclipse.egit.core",1345730516938
started,bundle,org.eclipse.egit.ui,1.3.0.201202151440-r,"org.eclipse.egit.ui",1345730516940
started,bundle,org.eclipse.epp.mpc.ui,1.1.1.I20110907-0947,"org.eclipse.epp.mpc.ui",1345730516940
started,bundle,org.eclipse.epp.usagedata.gathering,1.3.1.R201106061540,"org.eclipse.epp.usagedata.gathering",1345730516942
started,bundle,org.eclipse.epp.usagedata.recording,1.3.1.R201106061540,"org.eclipse.epp.usagedata.recording",1345730516942
started,bundle,org.eclipse.equinox.app,1.3.100.v20110321,"org.eclipse.equinox.app",1345730516942
started,bundle,org.eclipse.equinox.common,3.6.0.v20110523,"org.eclipse.equinox.common",1345730516943
started,bundle,org.eclipse.equinox.ds,1.3.1.R37x_v20110701,"org.eclipse.equinox.ds",1345730516943
started,bundle,org.eclipse.equinox.event,1.2.100.v20110502,"org.eclipse.equinox.event",1345730516944
started,bundle,org.eclipse.equinox.frameworkadmin,2.0.0.v20110815-1438,"org.eclipse.equinox.frameworkadmin",1345730516944
started,bundle,org.eclipse.equinox.frameworkadmin.equinox,1.0.300.v20110815-1438,"org.eclipse.equinox.frameworkadmin.equinox",1345730516945
started,bundle,org.eclipse.equinox.p2.artifact.repository,1.1.101.v20110815-1419,"org.eclipse.equinox.p2.artifact.repository",1345730516945
started,bundle,org.eclipse.equinox.p2.core,2.1.1.v20120113-1346,"org.eclipse.equinox.p2.core",1345730516945
started,bundle,org.eclipse.equinox.p2.director,2.1.1.v20111126-0211,"org.eclipse.equinox.p2.director",1345730516946
started,bundle,org.eclipse.equinox.p2.directorywatcher,1.0.300.v20110815-1419,"org.eclipse.equinox.p2.directorywatcher",1345730516946
started,bundle,org.eclipse.equinox.p2.engine,2.1.1.R37x_v20111003,"org.eclipse.equinox.p2.engine",1345730516946
started,bundle,org.eclipse.equinox.p2.extensionlocation,1.2.100.v20110815-1419,"org.eclipse.equinox.p2.extensionlocation",1345730516946
started,bundle,org.eclipse.equinox.p2.garbagecollector,1.0.200.v20110815-1419,"org.eclipse.equinox.p2.garbagecollector",1345730516946
started,bundle,org.eclipse.equinox.p2.metadata,2.1.0.v20110815-1419,"org.eclipse.equinox.p2.metadata",1345730516947
started,bundle,org.eclipse.equinox.p2.metadata.repository,1.2.0.v20110815-1419,"org.eclipse.equinox.p2.metadata.repository",1345730516947
started,bundle,org.eclipse.equinox.p2.operations,2.1.1.R37x_v20111111,"org.eclipse.equinox.p2.operations",1345730516947
started,bundle,org.eclipse.equinox.p2.publisher,1.2.0.v20110815-1419,"org.eclipse.equinox.p2.publisher",1345730516948
started,bundle,org.eclipse.equinox.p2.publisher.eclipse,1.0.0.v20110815-1438,"org.eclipse.equinox.p2.publisher.eclipse",1345730516948
started,bundle,org.eclipse.equinox.p2.reconciler.dropins,1.1.100.v20110815-1419,"org.eclipse.equinox.p2.reconciler.dropins",1345730516948
started,bundle,org.eclipse.equinox.p2.repository,2.1.1.v20120113-1346,"org.eclipse.equinox.p2.repository",1345730516948
started,bundle,org.eclipse.equinox.p2.touchpoint.eclipse,2.1.1.v20110815-1419,"org.eclipse.equinox.p2.touchpoint.eclipse",1345730516948
started,bundle,org.eclipse.equinox.p2.transport.ecf,1.0.0.v20111128-0624,"org.eclipse.equinox.p2.transport.ecf",1345730516949
started,bundle,org.eclipse.equinox.p2.ui.sdk.scheduler,1.0.100.v20110815-1419,"org.eclipse.equinox.p2.ui.sdk.scheduler",1345730516949
started,bundle,org.eclipse.equinox.p2.updatechecker,1.1.200.v20110815-1419,"org.eclipse.equinox.p2.updatechecker",1345730516949
started,bundle,org.eclipse.equinox.p2.updatesite,1.0.300.v20110815-1419,"org.eclipse.equinox.p2.updatesite",1345730516949
started,bundle,org.eclipse.equinox.preferences,3.4.2.v20120111-2020,"org.eclipse.equinox.preferences",1345730516950
started,bundle,org.eclipse.equinox.registry,3.5.101.R37x_v20110810-1611,"org.eclipse.equinox.registry",1345730516950
started,bundle,org.eclipse.equinox.security,1.1.1.R37x_v20110822-1018,"org.eclipse.equinox.security",1345730516950
started,bundle,org.eclipse.equinox.simpleconfigurator.manipulator,2.0.0.v20110815-1438,"org.eclipse.equinox.simpleconfigurator.manipulator",1345730516950
started,bundle,org.eclipse.equinox.util,1.0.300.v20110502,"org.eclipse.equinox.util",1345730516951
started,bundle,org.eclipse.help,3.5.100.v20110426,"org.eclipse.help",1345730516951
started,bundle,org.eclipse.jdt.core,3.7.3.v20120119-1537,"org.eclipse.jdt.core",1345730516951
started,bundle,org.eclipse.jdt.core.manipulation,1.4.0.v20110928-1453,"org.eclipse.jdt.core.manipulation",1345730516951
started,bundle,org.eclipse.jdt.debug,3.7.1.v20111006_r372,"org.eclipse.jdt.debug",1345730516951
started,bundle,org.eclipse.jdt.launching,3.6.1.v20111006_r372,"org.eclipse.jdt.launching",1345730516951
started,bundle,org.eclipse.jdt.ui,3.7.2.v20120109-1427,"org.eclipse.jdt.ui",1345730516951
started,bundle,org.eclipse.jface,3.7.0.v20110928-1505,"org.eclipse.jface",1345730516952
started,bundle,org.eclipse.jgit,1.3.0.201202151440-r,"org.eclipse.jgit",1345730516952
started,bundle,org.eclipse.jsch.core,1.1.300.I20110514-0800,"org.eclipse.jsch.core",1345730516952
started,bundle,org.eclipse.linuxtools.systemtap.ui.dashboardextension,0.3.0.201202152032,"org.eclipse.linuxtools.systemtap.ui.dashboardextension",1345730516953
started,bundle,org.eclipse.linuxtools.systemtap.ui.editor,0.3.0.201202152032,"org.eclipse.linuxtools.systemtap.ui.editor",1345730516954
started,bundle,org.eclipse.linuxtools.systemtap.ui.graphicalrun,0.3.0.201202152032,"org.eclipse.linuxtools.systemtap.ui.graphicalrun",1345730516955
started,bundle,org.eclipse.ltk.core.refactoring,3.5.201.r372_v20111101-0700,"org.eclipse.ltk.core.refactoring",1345730516955
started,bundle,org.eclipse.mylyn.bugzilla.core,3.6.5.v20120123-0100,"org.eclipse.mylyn.bugzilla.core",1345730516955
started,bundle,org.eclipse.mylyn.bugzilla.ui,3.6.0.v20110608-1400,"org.eclipse.mylyn.bugzilla.ui",1345730516955
started,bundle,org.eclipse.mylyn.commons.identity,0.8.0.v20110608-1400,"org.eclipse.mylyn.commons.identity",1345730516955
started,bundle,org.eclipse.mylyn.commons.net,3.6.0.v20110608-1400,"org.eclipse.mylyn.commons.net",1345730516955
started,bundle,org.eclipse.mylyn.commons.ui,3.6.1.v20110720-0100,"org.eclipse.mylyn.commons.ui",1345730516956
started,bundle,org.eclipse.mylyn.context.core,3.6.1.v20110720-0100,"org.eclipse.mylyn.context.core",1345730516956
started,bundle,org.eclipse.mylyn.context.ui,3.6.1.v20120112-0100,"org.eclipse.mylyn.context.ui",1345730516956
started,bundle,org.eclipse.mylyn.monitor.ui,3.6.0.v20110608-1400,"org.eclipse.mylyn.monitor.ui",1345730516956
started,bundle,org.eclipse.mylyn.tasks.ui,3.6.5.v20120215-0100,"org.eclipse.mylyn.tasks.ui",1345730516956
started,bundle,org.eclipse.mylyn.team.ui,3.6.1.v20110825-0100,"org.eclipse.mylyn.team.ui",1345730516956
started,bundle,org.eclipse.search,3.7.0.v20110928-1504,"org.eclipse.search",1345730516956
started,bundle,org.eclipse.team.core,3.6.0.I20110525-0800,"org.eclipse.team.core",1345730516956
started,bundle,org.eclipse.team.cvs.core,3.3.400.I20110510-0800,"org.eclipse.team.cvs.core",1345730516956
started,bundle,org.eclipse.team.cvs.ui,3.3.401.v20120126-1227,"org.eclipse.team.cvs.ui",1345730516956
started,bundle,org.eclipse.team.ui,3.6.101.R37x_v20111109-0800,"org.eclipse.team.ui",1345730516958
started,bundle,org.eclipse.ui,3.7.0.v20110928-1505,"org.eclipse.ui",1345730516958
started,bundle,org.eclipse.ui.console,3.5.100.v20111007_r372,"org.eclipse.ui.console",1345730516958
started,bundle,org.eclipse.ui.editors,3.7.0.v20110928-1504,"org.eclipse.ui.editors",1345730516958
started,bundle,org.eclipse.ui.forms,3.5.101.v20111011-1919,"org.eclipse.ui.forms",1345730516958
started,bundle,org.eclipse.ui.ide,3.7.0.v20110928-1505,"org.eclipse.ui.ide",1345730516958
started,bundle,org.eclipse.ui.navigator,3.5.101.v20120106-1355,"org.eclipse.ui.navigator",1345730516958
started,bundle,org.eclipse.ui.net,1.2.100.v20111208-1155,"org.eclipse.ui.net",1345730516958
started,bundle,org.eclipse.ui.views,3.6.0.v20110928-1505,"org.eclipse.ui.views",1345730516958
started,bundle,org.eclipse.ui.views.log,1.0.200.v20110404,"org.eclipse.ui.views.log",1345730516958
started,bundle,org.eclipse.ui.workbench,3.7.1.v20120104-1859,"org.eclipse.ui.workbench",1345730516958
started,bundle,org.eclipse.ui.workbench.texteditor,3.7.0.v20110928-1504,"org.eclipse.ui.workbench.texteditor",1345730516959
started,bundle,org.eclipse.update.configurator,3.3.100.v20100512,"org.eclipse.update.configurator",1345730516959
started,bundle,org.eclipse.update.core,3.2.500.v20110330,"org.eclipse.update.core",1345730516959
started,bundle,org.eclipse.update.scheduler,3.2.300.v20100512,"org.eclipse.update.scheduler",1345730516959
started,bundle,de.loskutov.anyedit.AnyEditTools,2.4.1.201204040004,"de.loskutov.anyedit.AnyEditTools",1345730516959
started,bundle,com.collabnet.subversion.merge,3.0.8,"com.collabnet.subversion.merge",1345730516959
started,bundle,org.tigris.subversion.clientadapter,1.8.2,"org.tigris.subversion.clientadapter",1345730516959
started,bundle,org.tigris.subversion.subclipse.core,1.8.8,"org.tigris.subversion.subclipse.core",1345730516959
started,bundle,org.tigris.subversion.subclipse.mylyn,3.0.0,"org.tigris.subversion.subclipse.mylyn",1345730516959
started,bundle,org.tigris.subversion.subclipse.tools.usage,1.1.0,"org.tigris.subversion.subclipse.tools.usage",1345730516959
started,bundle,org.tigris.subversion.subclipse.ui,1.8.8,"org.tigris.subversion.subclipse.ui",1345730516959
started,bundle,com.instantiations.assist.eclipse.analysis,7.1.0.r37x201109091206,"com.instantiations.assist.eclipse.analysis",1345730516959
started,bundle,com.instantiations.assist.eclipse.analysis.ui,7.1.0.r37x201109091206,"com.instantiations.assist.eclipse.analysis.ui",1345730516959
started,bundle,com.instantiations.assist.eclipse.core,7.1.0.r37x201109091135,"com.instantiations.assist.eclipse.core",1345730516959
started,bundle,com.instantiations.assist.eclipse.core.ui,7.1.0.r37x201109091135,"com.instantiations.assist.eclipse.core.ui",1345730516960
started,bundle,com.instantiations.eclipse.analysis.utilities,7.1.0.r37x201109091123,"com.instantiations.eclipse.analysis.utilities",1345730516960
started,bundle,com.instantiations.eclipse.analysis.utilities.ui,7.1.0.r37x201109091123,"com.instantiations.eclipse.analysis.utilities.ui",1345730516960
started,bundle,com.instantiations.eclipse.debug,6.0.0.r37x201109091114,"com.instantiations.eclipse.debug",1345730516961
started,bundle,com.instantiations.eclipse.startup,6.0.0.r37x201109091114,"com.instantiations.eclipse.startup",1345730516961
started,bundle,com.instantiations.eclipse.util,6.0.0.r37x201109091114,"com.instantiations.eclipse.util",1345730516961
