what,kind,bundleId,bundleVersion,description,time
started,bundle,org.eclipse.team.core,3.6.0.I20110525-0800,"org.eclipse.team.core",1337250277459
started,bundle,org.eclipse.team.ui,3.6.101.R37x_v20111109-0800,"org.eclipse.team.ui",1337250277459
started,bundle,org.eclipse.ui,3.7.0.v20110928-1505,"org.eclipse.ui",1337250277460
started,bundle,org.eclipse.ui.console,3.5.100.v20111007_r372,"org.eclipse.ui.console",1337250277460
started,bundle,org.eclipse.ui.editors,3.7.0.v20110928-1504,"org.eclipse.ui.editors",1337250277460
started,bundle,org.eclipse.ui.forms,3.5.101.v20111011-1919,"org.eclipse.ui.forms",1337250277460
started,bundle,org.eclipse.ui.ide,3.7.0.v20110928-1505,"org.eclipse.ui.ide",1337250277460
started,bundle,org.eclipse.ui.navigator,3.5.101.v20120106-1355,"org.eclipse.ui.navigator",1337250277460
started,bundle,org.eclipse.ui.net,1.2.100.v20111208-1155,"org.eclipse.ui.net",1337250277460
started,bundle,org.eclipse.ui.views,3.6.0.v20110928-1505,"org.eclipse.ui.views",1337250277461
started,bundle,org.eclipse.ui.workbench,3.7.1.v20120104-1859,"org.eclipse.ui.workbench",1337250277461
started,bundle,org.eclipse.ui.workbench.texteditor,3.7.0.v20110928-1504,"org.eclipse.ui.workbench.texteditor",1337250277461
started,bundle,org.eclipse.update.configurator,3.3.100.v20100512,"org.eclipse.update.configurator",1337250277461
started,bundle,org.eclipse.update.core,3.2.500.v20110330,"org.eclipse.update.core",1337250277461
started,bundle,org.eclipse.update.scheduler,3.2.300.v20100512,"org.eclipse.update.scheduler",1337250277461
started,bundle,de.loskutov.anyedit.AnyEditTools,2.4.1.201204040004,"de.loskutov.anyedit.AnyEditTools",1337250277461
started,bundle,com.collabnet.subversion.merge,3.0.8,"com.collabnet.subversion.merge",1337250277461
started,bundle,org.tigris.subversion.clientadapter,1.8.2,"org.tigris.subversion.clientadapter",1337250277461
started,bundle,org.tigris.subversion.subclipse.core,1.8.8,"org.tigris.subversion.subclipse.core",1337250277461
started,bundle,org.tigris.subversion.subclipse.mylyn,3.0.0,"org.tigris.subversion.subclipse.mylyn",1337250277462
started,bundle,org.tigris.subversion.subclipse.tools.usage,1.1.0,"org.tigris.subversion.subclipse.tools.usage",1337250277462
started,bundle,org.tigris.subversion.subclipse.ui,1.8.8,"org.tigris.subversion.subclipse.ui",1337250277462
started,bundle,org.eclipse.jdt.apt.core,3.3.500.v20110420-1015,"org.eclipse.jdt.apt.core",1337250277462
started,bundle,org.eclipse.jdt.apt.pluggable.core,1.0.400.v20110305-1450,"org.eclipse.jdt.apt.pluggable.core",1337250277462
os,sysinfo,,,"linux",1337250277465
arch,sysinfo,,,"x86_64",1337250277465
ws,sysinfo,,,"gtk",1337250277465
locale,sysinfo,,,"en_US",1337250277465
processors,sysinfo,,,"4",1337250277465
java.runtime.name,sysinfo,,,"Java(TM) SE Runtime Environment",1337250277465
java.runtime.version,sysinfo,,,"1.7.0_03-b04",1337250277465
java.specification.name,sysinfo,,,"Java Platform API Specification",1337250277465
java.specification.vendor,sysinfo,,,"Oracle Corporation",1337250277465
java.specification.version,sysinfo,,,"1.7",1337250277465
java.vendor,sysinfo,,,"Oracle Corporation",1337250277466
java.version,sysinfo,,,"1.7.0_03",1337250277466
java.vm.info,sysinfo,,,"mixed mode",1337250277466
java.vm.name,sysinfo,,,"Java HotSpot(TM) 64-Bit Server VM",1337250277466
java.vm.specification.name,sysinfo,,,"Java Virtual Machine Specification",1337250277466
java.vm.specification.vendor,sysinfo,,,"Oracle Corporation",1337250277466
java.vm.specification.version,sysinfo,,,"1.7",1337250277466
java.vm.vendor,sysinfo,,,"Oracle Corporation",1337250277466
java.vm.version,sysinfo,,,"22.1-b02",1337250277466
started,bundle,org.eclipse.team.cvs.core,3.3.400.I20110510-0800,"org.eclipse.team.cvs.core",1337250277667
started,bundle,org.eclipse.team.cvs.ui,3.3.401.v20120126-1227,"org.eclipse.team.cvs.ui",1337250277782
started,bundle,org.eclipse.epp.usagedata.ui,1.3.1.R201106061540,"org.eclipse.epp.usagedata.ui",1337250278537
deactivated,workbench,org.eclipse.ui.workbench,3.7.1.v20120104-1859,"",1337250286214
executed,command,org.eclipse.ui,3.7.0.v20110928-1505,"org.eclipse.ui.file.import",1337250308395
executed,command,org.eclipse.ui,3.7.0.v20110928-1505,"org.eclipse.ui.file.import",1337250308395
activated,workbench,org.eclipse.ui.workbench,3.7.1.v20120104-1859,"",1337250308410
deactivated,workbench,org.eclipse.ui.workbench,3.7.1.v20120104-1859,"",1337250309625
activated,workbench,org.eclipse.ui.workbench,3.7.1.v20120104-1859,"",1337250309830
deactivated,workbench,org.eclipse.ui.workbench,3.7.1.v20120104-1859,"",1337250311829
executed,command,org.eclipse.ui,3.7.0.v20110928-1505,"org.eclipse.ui.newWizard",1337250325739
activated,workbench,org.eclipse.ui.workbench,3.7.1.v20120104-1859,"",1337250325758
deactivated,workbench,org.eclipse.ui.workbench,3.7.1.v20120104-1859,"",1337250328398
started,bundle,org.tigris.subversion.clientadapter.javahl,1.7.4.1,"org.tigris.subversion.clientadapter.javahl",1337250363299
started,bundle,org.tigris.subversion.clientadapter.svnkit,1.7.4,"org.tigris.subversion.clientadapter.svnkit",1337250363304
started,bundle,org.tmatesoft.svnkit,1.7.4.t20120412_2022,"org.tmatesoft.svnkit",1337250393779
activated,workbench,org.eclipse.ui.workbench,3.7.1.v20120104-1859,"",1337250403093
executed,command,org.eclipse.ui.ide,3.7.0.v20110928-1505,"org.eclipse.ui.project.closeProject",1337250408866
opened,editor,org.eclipse.jdt.ui,3.7.2.v20120109-1427,"org.eclipse.jdt.ui.CompilationUnitEditor",1337250409111
closed,editor,org.eclipse.jdt.ui,3.7.2.v20120109-1427,"org.eclipse.jdt.ui.CompilationUnitEditor",1337250409158
started,bundle,org.eclipse.debug.ui,3.7.102.v20111129-1423_r372,"org.eclipse.debug.ui",1337250422119
deactivated,workbench,org.eclipse.ui.workbench,3.7.1.v20120104-1859,"",1337250422446
started,bundle,org.eclipse.jdt.debug,3.7.1.v20111006_r372,"org.eclipse.jdt.debug",1337250424108
started,bundle,org.eclipse.jdt.debug.ui,3.6.1.v20111006_r372,"org.eclipse.jdt.debug.ui",1337250424211
executed,command,org.eclipse.debug.ui,3.7.102.v20111129-1423_r372,"org.eclipse.debug.ui.commands.OpenDebugConfigurations",1337250430917
activated,workbench,org.eclipse.ui.workbench,3.7.1.v20120104-1859,"",1337250430954
started,bundle,org.eclipse.cdt.debug.core,7.1.0.201202111925,"org.eclipse.cdt.debug.core",1337250444197
started,bundle,org.eclipse.cdt.debug.ui,7.1.2.201202111925,"org.eclipse.cdt.debug.ui",1337250444214
deactivated,workbench,org.eclipse.ui.workbench,3.7.1.v20120104-1859,"",1337250446635
executed,command,org.eclipse.debug.ui,3.7.102.v20111129-1423_r372,"org.eclipse.debug.ui.commands.OpenDebugConfigurations",1337250473446
activated,workbench,org.eclipse.ui.workbench,3.7.1.v20120104-1859,"",1337250473467
error,log,,,"Failed to connect to remote VM. Connection refused.",1337250473501
deactivated,workbench,org.eclipse.ui.workbench,3.7.1.v20120104-1859,"",1337250473585
activated,workbench,org.eclipse.ui.workbench,3.7.1.v20120104-1859,"",1337250476454
deactivated,workbench,org.eclipse.ui.workbench,3.7.1.v20120104-1859,"",1337250477537
activated,workbench,org.eclipse.ui.workbench,3.7.1.v20120104-1859,"",1337250478735
deactivated,workbench,org.eclipse.ui.workbench,3.7.1.v20120104-1859,"",1337250479511
activated,workbench,org.eclipse.ui.workbench,3.7.1.v20120104-1859,"",1337250486640
deactivated,workbench,org.eclipse.ui.workbench,3.7.1.v20120104-1859,"",1337250489535
executed,command,org.eclipse.debug.ui,3.7.102.v20111129-1423_r372,"org.eclipse.debug.ui.commands.OpenDebugConfigurations",1337250491934
activated,workbench,org.eclipse.ui.workbench,3.7.1.v20120104-1859,"",1337250491952
deactivated,workbench,org.eclipse.ui.workbench,3.7.1.v20120104-1859,"",1337250494224
activated,workbench,org.eclipse.ui.workbench,3.7.1.v20120104-1859,"",1337250505904
opened,editor,org.eclipse.jdt.ui,3.7.2.v20120109-1427,"org.eclipse.jdt.ui.CompilationUnitEditor",1337250507232
activated,editor,org.eclipse.jdt.ui,3.7.2.v20120109-1427,"org.eclipse.jdt.ui.CompilationUnitEditor",1337250507365
executed,command,,,"AUTOGEN:::org.eclipse.jdt.debug.CompilationUnitEditor.BreakpointRulerActions/org.eclipse.jdt.debug.ui.actions.ManageBreakpointRulerAction",1337250511003
started,bundle,org.eclipse.jdt.junit,3.7.0.v20110928-1453,"org.eclipse.jdt.junit",1337250518487
deactivated,workbench,org.eclipse.ui.workbench,3.7.1.v20120104-1859,"",1337250526925
executed,command,org.eclipse.debug.ui,3.7.102.v20111129-1423_r372,"org.eclipse.debug.ui.commands.OpenDebugConfigurations",1337250536484
activated,workbench,org.eclipse.ui.workbench,3.7.1.v20120104-1859,"",1337250536507
deactivated,workbench,org.eclipse.ui.workbench,3.7.1.v20120104-1859,"",1337250536708
opened,view,org.eclipse.ui.console,3.5.100.v20111007_r372,"org.eclipse.ui.console.ConsoleView",1337250538727
opened,view,org.eclipse.debug.ui,3.7.102.v20111129-1423_r372,"org.eclipse.debug.ui.DebugView",1337250539515
opened,view,org.eclipse.debug.ui,3.7.102.v20111129-1423_r372,"org.eclipse.debug.ui.VariableView",1337250539641
activated,perspective,org.eclipse.debug.ui,3.7.102.v20111129-1423_r372,"org.eclipse.debug.ui.DebugPerspective",1337250539690
activated,workbench,org.eclipse.ui.workbench,3.7.1.v20120104-1859,"",1337250539729
opened,view,org.eclipse.debug.ui,3.7.102.v20111129-1423_r372,"org.eclipse.debug.ui.BreakpointView",1337250540450
executed,command,org.eclipse.debug.ui,3.7.102.v20111129-1423_r372,"org.eclipse.debug.ui.commands.StepInto",1337250555465
deactivated,workbench,org.eclipse.ui.workbench,3.7.1.v20120104-1859,"",1337250555494
opened,editor,org.eclipse.jdt.ui,3.7.2.v20120109-1427,"org.eclipse.jdt.ui.ClassFileEditor",1337250557213
activated,editor,org.eclipse.jdt.ui,3.7.2.v20120109-1427,"org.eclipse.jdt.ui.ClassFileEditor",1337250557441
activated,workbench,org.eclipse.ui.workbench,3.7.1.v20120104-1859,"",1337250557536
deactivated,workbench,org.eclipse.ui.workbench,3.7.1.v20120104-1859,"",1337250557552
activated,workbench,org.eclipse.ui.workbench,3.7.1.v20120104-1859,"",1337250559725
executed,command,org.eclipse.debug.ui,3.7.102.v20111129-1423_r372,"org.eclipse.debug.ui.commands.StepInto",1337250564519
executed,command,org.eclipse.debug.ui,3.7.102.v20111129-1423_r372,"org.eclipse.debug.ui.commands.StepOver",1337250567640
executed,command,org.eclipse.debug.ui,3.7.102.v20111129-1423_r372,"org.eclipse.debug.ui.commands.StepReturn",1337250568193
activated,view,org.eclipse.debug.ui,3.7.102.v20111129-1423_r372,"org.eclipse.debug.ui.DebugView",1337250573869
activated,editor,org.eclipse.jdt.ui,3.7.2.v20120109-1427,"org.eclipse.jdt.ui.CompilationUnitEditor",1337250575848
opened,editor,org.eclipse.jdt.ui,3.7.2.v20120109-1427,"org.eclipse.jdt.ui.CompilationUnitEditor",1337250578571
activated,editor,org.eclipse.jdt.ui,3.7.2.v20120109-1427,"org.eclipse.jdt.ui.CompilationUnitEditor",1337250578654
executed,command,org.eclipse.jdt.ui,3.7.2.v20120109-1427,"org.eclipse.jdt.ui.edit.text.java.open.editor",1337250578662
executed,command,org.eclipse.jdt.ui,3.7.2.v20120109-1427,"org.eclipse.jdt.ui.edit.text.java.open.editor",1337250578822
deactivated,workbench,org.eclipse.ui.workbench,3.7.1.v20120104-1859,"",1337250592486
activated,workbench,org.eclipse.ui.workbench,3.7.1.v20120104-1859,"",1337250593215
opened,editor,org.eclipse.jdt.ui,3.7.2.v20120109-1427,"org.eclipse.jdt.ui.CompilationUnitEditor",1337250601248
opened,editor,org.eclipse.jdt.ui,3.7.2.v20120109-1427,"org.eclipse.jdt.ui.CompilationUnitEditor",1337250601367
opened,editor,org.eclipse.jdt.ui,3.7.2.v20120109-1427,"org.eclipse.jdt.ui.CompilationUnitEditor",1337250601572
opened,editor,org.eclipse.jdt.ui,3.7.2.v20120109-1427,"org.eclipse.jdt.ui.CompilationUnitEditor",1337250601627
activated,perspective,org.eclipse.jdt.ui,3.7.2.v20120109-1427,"org.eclipse.jdt.ui.JavaPerspective",1337250617243
activated,view,org.eclipse.jdt.ui,3.7.2.v20120109-1427,"org.eclipse.jdt.ui.PackageExplorer",1337250618799
deactivated,workbench,org.eclipse.ui.workbench,3.7.1.v20120104-1859,"",1337250620333
executed,command,org.eclipse.ui,3.7.0.v20110928-1505,"org.eclipse.ui.file.import",1337250636892
executed,command,org.eclipse.ui,3.7.0.v20110928-1505,"org.eclipse.ui.file.import",1337250636892
activated,workbench,org.eclipse.ui.workbench,3.7.1.v20120104-1859,"",1337250636914
activated,editor,org.eclipse.jdt.ui,3.7.2.v20120109-1427,"org.eclipse.jdt.ui.CompilationUnitEditor",1337250639099
opened,view,org.eclipse.ui.ide,3.7.0.v20110928-1505,"org.eclipse.ui.views.ResourceNavigator",1337250643941
activated,view,org.eclipse.ui.ide,3.7.0.v20110928-1505,"org.eclipse.ui.views.ResourceNavigator",1337250643967
executed,command,org.eclipse.ui,3.7.0.v20110928-1505,"org.eclipse.ui.navigate.showIn",1337250644031
activated,view,org.eclipse.ui.views,3.6.0.v20110928-1505,"org.eclipse.ui.views.ContentOutline",1337250646285
executed,command,org.eclipse.ui,3.7.0.v20110928-1505,"org.eclipse.ui.views.showView",1337250646286
activated,editor,org.eclipse.jdt.ui,3.7.2.v20120109-1427,"org.eclipse.jdt.ui.CompilationUnitEditor",1337250648141
executed,command,org.eclipse.ui,3.7.0.v20110928-1505,"org.eclipse.ui.window.activateEditor",1337250648142
executed,command,org.eclipse.ui.editors,3.7.0.v20110928-1504,"org.eclipse.ui.editors.lineNumberToggle",1337250655188
activated,perspective,org.eclipse.debug.ui,3.7.102.v20111129-1423_r372,"org.eclipse.debug.ui.DebugPerspective",1337250659260
activated,view,org.eclipse.debug.ui,3.7.102.v20111129-1423_r372,"org.eclipse.debug.ui.DebugView",1337250661100
activated,editor,org.eclipse.jdt.ui,3.7.2.v20120109-1427,"org.eclipse.jdt.ui.CompilationUnitEditor",1337250662461
executed,command,org.eclipse.debug.ui,3.7.102.v20111129-1423_r372,"org.eclipse.debug.ui.commands.StepOver",1337250665224
executed,command,org.eclipse.debug.ui,3.7.102.v20111129-1423_r372,"org.eclipse.debug.ui.commands.StepInto",1337250666489
activated,editor,org.eclipse.jdt.ui,3.7.2.v20120109-1427,"org.eclipse.jdt.ui.CompilationUnitEditor",1337250666578
executed,command,org.eclipse.debug.ui,3.7.102.v20111129-1423_r372,"org.eclipse.debug.ui.commands.StepOver",1337250667720
executed,command,org.eclipse.debug.ui,3.7.102.v20111129-1423_r372,"org.eclipse.debug.ui.commands.StepOver",1337250668832
executed,command,org.eclipse.debug.ui,3.7.102.v20111129-1423_r372,"org.eclipse.debug.ui.commands.StepOver",1337250670176
executed,command,org.eclipse.debug.ui,3.7.102.v20111129-1423_r372,"org.eclipse.debug.ui.commands.StepOver",1337250670760
activated,editor,org.eclipse.jdt.ui,3.7.2.v20120109-1427,"org.eclipse.jdt.ui.CompilationUnitEditor",1337250670848
executed,command,org.eclipse.debug.ui,3.7.102.v20111129-1423_r372,"org.eclipse.debug.ui.commands.StepOver",1337250671920
executed,command,org.eclipse.debug.ui,3.7.102.v20111129-1423_r372,"org.eclipse.debug.ui.commands.StepOver",1337250672792
activated,editor,org.eclipse.jdt.ui,3.7.2.v20120109-1427,"org.eclipse.jdt.ui.ClassFileEditor",1337250673139
started,bundle,org.eclipse.mylyn.ide.ui,3.6.0.v20110608-1400,"org.eclipse.mylyn.ide.ui",1337250697598
activated,view,org.eclipse.ui.views,3.6.0.v20110928-1505,"org.eclipse.ui.views.ContentOutline",1337250705928
activated,editor,org.eclipse.jdt.ui,3.7.2.v20120109-1427,"org.eclipse.jdt.ui.ClassFileEditor",1337250707492
opened,view,org.eclipse.jdt.ui,3.7.2.v20120109-1427,"org.eclipse.jdt.ui.TypeHierarchy",1337250709419
activated,view,org.eclipse.jdt.ui,3.7.2.v20120109-1427,"org.eclipse.jdt.ui.TypeHierarchy",1337250709457
executed,command,org.eclipse.jdt.ui,3.7.2.v20120109-1427,"org.eclipse.jdt.ui.edit.text.java.open.type.hierarchy",1337250709561
opened,editor,org.eclipse.jdt.ui,3.7.2.v20120109-1427,"org.eclipse.jdt.ui.ClassFileEditor",1337250717416
activated,editor,org.eclipse.jdt.ui,3.7.2.v20120109-1427,"org.eclipse.jdt.ui.ClassFileEditor",1337250717561
activated,editor,org.eclipse.jdt.ui,3.7.2.v20120109-1427,"org.eclipse.jdt.ui.ClassFileEditor",1337250760225
closed,editor,org.eclipse.jdt.ui,3.7.2.v20120109-1427,"org.eclipse.jdt.ui.ClassFileEditor",1337250760225
activated,view,org.eclipse.ui.views,3.6.0.v20110928-1505,"org.eclipse.ui.views.ContentOutline",1337250774177
activated,editor,org.eclipse.jdt.ui,3.7.2.v20120109-1427,"org.eclipse.jdt.ui.ClassFileEditor",1337250775491
executed,command,org.eclipse.debug.ui,3.7.102.v20111129-1423_r372,"org.eclipse.debug.ui.commands.StepOver",1337250777065
executed,command,org.eclipse.debug.ui,3.7.102.v20111129-1423_r372,"org.eclipse.debug.ui.commands.StepOver",1337250778137
executed,command,org.eclipse.debug.ui,3.7.102.v20111129-1423_r372,"org.eclipse.debug.ui.commands.StepOver",1337250779041
executed,command,org.eclipse.debug.ui,3.7.102.v20111129-1423_r372,"org.eclipse.debug.ui.commands.StepOver",1337250785249
executed,command,org.eclipse.debug.ui,3.7.102.v20111129-1423_r372,"org.eclipse.debug.ui.commands.StepOver",1337250791425
executed,command,org.eclipse.debug.ui,3.7.102.v20111129-1423_r372,"org.eclipse.debug.ui.commands.StepOver",1337250792586
executed,command,org.eclipse.debug.ui,3.7.102.v20111129-1423_r372,"org.eclipse.debug.ui.commands.StepOver",1337250793233
executed,command,org.eclipse.debug.ui,3.7.102.v20111129-1423_r372,"org.eclipse.debug.ui.commands.StepOver",1337250794001
executed,command,org.eclipse.debug.ui,3.7.102.v20111129-1423_r372,"org.eclipse.debug.ui.commands.StepOver",1337250794409
executed,command,org.eclipse.debug.ui,3.7.102.v20111129-1423_r372,"org.eclipse.debug.ui.commands.StepOver",1337250795609
activated,view,org.eclipse.debug.ui,3.7.102.v20111129-1423_r372,"org.eclipse.debug.ui.DebugView",1337250801369
deactivated,workbench,org.eclipse.ui.workbench,3.7.1.v20120104-1859,"",1337250803377
activated,workbench,org.eclipse.ui.workbench,3.7.1.v20120104-1859,"",1337250911500
deactivated,workbench,org.eclipse.ui.workbench,3.7.1.v20120104-1859,"",1337250912591
closed,workbench,org.eclipse.ui.workbench,3.7.1.v20120104-1859,"",1337250913636
stopped,bundle,org.eclipse.linuxtools.valgrind.massif,0.9.0.201202152032,"org.eclipse.linuxtools.valgrind.massif",1337250914145
stopped,bundle,org.eclipse.birt.chart.device.svg,3.7.2.v20120213,"org.eclipse.birt.chart.device.svg",1337250914149
stopped,bundle,org.eclipse.birt.chart.device.extension,3.7.2.v20120213,"org.eclipse.birt.chart.device.extension",1337250914149
stopped,bundle,org.eclipse.birt.chart.device.swt,3.7.2.v20120213,"org.eclipse.birt.chart.device.swt",1337250914149
stopped,bundle,org.eclipse.birt.chart.engine.extension,3.7.2.v20120213,"org.eclipse.birt.chart.engine.extension",1337250914149
stopped,bundle,org.eclipse.linuxtools.gcov.core,4.1.1.201202152032,"org.eclipse.linuxtools.gcov.core",1337250914149
stopped,bundle,org.eclipse.linuxtools.gprof,4.0.0.201202152032,"org.eclipse.linuxtools.gprof",1337250914149
stopped,bundle,org.eclipse.linuxtools.dataviewers.charts,4.1.0.201202152032,"org.eclipse.linuxtools.dataviewers.charts",1337250914149
stopped,bundle,org.eclipse.birt.chart.ui,3.7.2.v20120213,"org.eclipse.birt.chart.ui",1337250914149
stopped,bundle,org.eclipse.linuxtools.systemtap.ui.dashboardextension,0.3.0.201202152032,"org.eclipse.linuxtools.systemtap.ui.dashboardextension",1337250914150
stopped,bundle,org.eclipse.linuxtools.systemtap.ui.dashboard,0.3.0.201202152032,"org.eclipse.linuxtools.systemtap.ui.dashboard",1337250914151
stopped,bundle,org.eclipse.linuxtools.systemtap.ui.graphicalrun,0.3.0.201202152032,"org.eclipse.linuxtools.systemtap.ui.graphicalrun",1337250914151
stopped,bundle,org.eclipse.linuxtools.systemtap.ui.ide,0.3.0.201202152032,"org.eclipse.linuxtools.systemtap.ui.ide",1337250914151
stopped,bundle,org.eclipse.linuxtools.systemtap.ui.graphing,0.3.0.201202152032,"org.eclipse.linuxtools.systemtap.ui.graphing",1337250914152
stopped,bundle,org.eclipse.linuxtools.systemtap.ui.graphingapi.ui,0.3.0.201202152032,"org.eclipse.linuxtools.systemtap.ui.graphingapi.ui",1337250914152
stopped,bundle,org.eclipse.birt.chart.engine,3.7.2.v20120213,"org.eclipse.birt.chart.engine",1337250914152
stopped,bundle,org.eclipse.birt.core.ui,3.7.2.v20120213,"org.eclipse.birt.core.ui",1337250914152
stopped,bundle,org.eclipse.birt.data.aggregation,3.7.2.v20120213,"org.eclipse.birt.data.aggregation",1337250914152
stopped,bundle,org.eclipse.birt.data,3.7.2.v20120213,"org.eclipse.birt.data",1337250914152
stopped,bundle,org.eclipse.birt.core,3.7.2.v20120213,"org.eclipse.birt.core",1337250914152
stopped,bundle,org.eclipse.cdt.build.crossgcc,1.0.2.201202111925,"org.eclipse.cdt.build.crossgcc",1337250914152
stopped,bundle,org.eclipse.cdt.codan.checkers.ui,1.0.0.201202111925,"org.eclipse.cdt.codan.checkers.ui",1337250914152
stopped,bundle,org.eclipse.cdt.codan.checkers,1.0.1.201202111925,"org.eclipse.cdt.codan.checkers",1337250914153
stopped,bundle,org.eclipse.cdt.codan.ui.cxx,2.0.0.201202111925,"org.eclipse.cdt.codan.ui.cxx",1337250914154
stopped,bundle,org.eclipse.cdt.codan.core.cxx,1.0.0.201202111925,"org.eclipse.cdt.codan.core.cxx",1337250914154
stopped,bundle,org.eclipse.cdt.launch.remote,2.3.0.201202111925,"org.eclipse.cdt.launch.remote",1337250914154
stopped,bundle,org.eclipse.cdt.debug.mi.ui,6.1.1.201202111925,"org.eclipse.cdt.debug.mi.ui",1337250914154
stopped,bundle,org.eclipse.cdt.debug.mi.core,7.1.1.201202111925,"org.eclipse.cdt.debug.mi.core",1337250914154
stopped,bundle,org.eclipse.cdt.debug.ui.memory.memorybrowser,1.2.100.201202111925,"org.eclipse.cdt.debug.ui.memory.memorybrowser",1337250914154
stopped,bundle,org.eclipse.cdt.debug.ui.memory.search,1.2.1.201202111925,"org.eclipse.cdt.debug.ui.memory.search",1337250914154
stopped,bundle,org.eclipse.cdt.dsf.gdb.ui,2.2.1.201202111925,"org.eclipse.cdt.dsf.gdb.ui",1337250914154
stopped,bundle,org.eclipse.cdt.dsf.ui,2.2.1.201202111925,"org.eclipse.cdt.dsf.ui",1337250914154
stopped,bundle,org.eclipse.cdt.gdb.ui,7.0.0.201202111925,"org.eclipse.cdt.gdb.ui",1337250914154
stopped,bundle,org.eclipse.cdt.dsf.gdb,4.0.2.201202111925,"org.eclipse.cdt.dsf.gdb",1337250914154
stopped,bundle,org.eclipse.linuxtools.callgraph.launch,0.9.0.201202152032,"org.eclipse.linuxtools.callgraph.launch",1337250914154
stopped,bundle,org.eclipse.linuxtools.oprofile.launch,0.3.1.201202152032,"org.eclipse.linuxtools.oprofile.launch",1337250914154
stopped,bundle,org.eclipse.linuxtools.valgrind.cachegrind,0.9.0.201202152032,"org.eclipse.linuxtools.valgrind.cachegrind",1337250914154
stopped,bundle,org.eclipse.linuxtools.valgrind.helgrind,0.9.0.201202152032,"org.eclipse.linuxtools.valgrind.helgrind",1337250914154
stopped,bundle,org.eclipse.linuxtools.valgrind.memcheck,0.9.0.201202152032,"org.eclipse.linuxtools.valgrind.memcheck",1337250914155
stopped,bundle,org.eclipse.linuxtools.valgrind.launch,0.9.0.201202152032,"org.eclipse.linuxtools.valgrind.launch",1337250914155
stopped,bundle,org.eclipse.linuxtools.profiling.launch,0.9.0.201202152032,"org.eclipse.linuxtools.profiling.launch",1337250914155
stopped,bundle,org.eclipse.cdt.launch,7.0.0.201202111925,"org.eclipse.cdt.launch",1337250914155
stopped,bundle,org.eclipse.linuxtools.valgrind.ui,0.9.0.201202152032,"org.eclipse.linuxtools.valgrind.ui",1337250914155
stopped,bundle,org.eclipse.cdt.debug.ui,7.1.2.201202111925,"org.eclipse.cdt.debug.ui",1337250914156
stopped,bundle,org.eclipse.cdt.debug.ui.memory.traditional,1.2.1.201202111925,"org.eclipse.cdt.debug.ui.memory.traditional",1337250914156
stopped,bundle,org.eclipse.cdt.dsf,2.2.0.201202111925,"org.eclipse.cdt.dsf",1337250914156
stopped,bundle,org.eclipse.linuxtools.binutils,4.0.0.201202152032,"org.eclipse.linuxtools.binutils",1337250914156
stopped,bundle,org.eclipse.linuxtools.callgraph,0.9.0.201202152032,"org.eclipse.linuxtools.callgraph",1337250914157
stopped,bundle,org.eclipse.linuxtools.callgraph.core,0.9.0.201202152032,"org.eclipse.linuxtools.callgraph.core",1337250914157
stopped,bundle,org.eclipse.linuxtools.oprofile.ui,0.3.1.201202152032,"org.eclipse.linuxtools.oprofile.ui",1337250914157
stopped,bundle,org.eclipse.linuxtools.profiling.ui,0.9.0.201202152032,"org.eclipse.linuxtools.profiling.ui",1337250914157
stopped,bundle,org.eclipse.cdt.debug.core,7.1.0.201202111925,"org.eclipse.cdt.debug.core",1337250914157
stopped,bundle,org.eclipse.linuxtools.cdt.autotools.ui,1.0.1.201202152032,"org.eclipse.linuxtools.cdt.autotools.ui",1337250914157
stopped,bundle,org.eclipse.linuxtools.cdt.autotools.core,1.0.2.201202152032,"org.eclipse.linuxtools.cdt.autotools.core",1337250914157
stopped,bundle,org.eclipse.cdt.managedbuilder.ui,8.0.2.201202111925,"org.eclipse.cdt.managedbuilder.ui",1337250914157
stopped,bundle,org.eclipse.cdt.make.ui,7.1.2.201202111925,"org.eclipse.cdt.make.ui",1337250914157
stopped,bundle,org.eclipse.cdt.managedbuilder.gnu.ui,8.0.2.201202111925,"org.eclipse.cdt.managedbuilder.gnu.ui",1337250914157
stopped,bundle,org.eclipse.cdt.managedbuilder.core,8.0.2.201202111925,"org.eclipse.cdt.managedbuilder.core",1337250914258
stopped,bundle,org.eclipse.cdt.make.core,7.1.2.201202111925,"org.eclipse.cdt.make.core",1337250914259
stopped,bundle,org.eclipse.cdt.mylyn.ui,3.6.0.v20110608-1400,"org.eclipse.cdt.mylyn.ui",1337250914259
stopped,bundle,org.eclipse.cdt.codan.ui,2.0.1.201202111925,"org.eclipse.cdt.codan.ui",1337250914259
stopped,bundle,org.eclipse.linuxtools.cdt.libhover,1.1.0.201202152032,"org.eclipse.linuxtools.cdt.libhover",1337250914259
stopped,bundle,org.eclipse.linuxtools.rpm.rpmlint,0.4.3.201202152032,"org.eclipse.linuxtools.rpm.rpmlint",1337250914259
stopped,bundle,org.eclipse.linuxtools.rpm.ui.editor,0.4.3.201202152032,"org.eclipse.linuxtools.rpm.ui.editor",1337250914260
stopped,bundle,org.eclipse.linuxtools.changelog.core,2.7.0.201202152032,"org.eclipse.linuxtools.changelog.core",1337250914260
stopped,bundle,org.eclipse.linuxtools.dataviewers.annotatedsourceeditor,4.1.0.201202152032,"org.eclipse.linuxtools.dataviewers.annotatedsourceeditor",1337250914260
stopped,bundle,org.eclipse.cdt.ui,5.3.2.201202111925,"org.eclipse.cdt.ui",1337250914287
stopped,bundle,org.eclipse.linuxtools.valgrind.core,0.9.0.201202152032,"org.eclipse.linuxtools.valgrind.core",1337250914288
stopped,bundle,org.eclipse.cdt.core,5.3.2.201202111925,"org.eclipse.cdt.core",1337250914312
stopped,bundle,org.eclipse.egit.ui,1.3.0.201202151440-r,"org.eclipse.egit.ui",1337250914314
stopped,bundle,org.eclipse.egit.core,1.3.0.201202151440-r,"org.eclipse.egit.core",1337250914315
stopped,bundle,org.eclipse.equinox.p2.ui.sdk,1.0.200.v20110815-1419,"org.eclipse.equinox.p2.ui.sdk",1337250914316
