what,kind,bundleId,bundleVersion,description,time
closed,editor,org.eclipse.cdt.ui,5.3.2.201202111925,"org.eclipse.cdt.ui.editor.CEditor",1336045120761
closed,editor,org.eclipse.cdt.ui,5.3.2.201202111925,"org.eclipse.cdt.ui.editor.CEditor",1336045120774
closed,editor,org.eclipse.cdt.ui,5.3.2.201202111925,"org.eclipse.cdt.ui.editor.CEditor",1336045120785
closed,editor,org.eclipse.cdt.ui,5.3.2.201202111925,"org.eclipse.cdt.ui.editor.CEditor",1336045120795
closed,editor,org.eclipse.cdt.ui,5.3.2.201202111925,"org.eclipse.cdt.ui.editor.CEditor",1336045120806
closed,editor,org.eclipse.cdt.ui,5.3.2.201202111925,"org.eclipse.cdt.ui.editor.CEditor",1336045120818
activated,editor,org.eclipse.cdt.ui,5.3.2.201202111925,"org.eclipse.cdt.ui.editor.CEditor",1336045121797
executed,command,org.eclipse.ui,3.7.0.v20110928-1505,"org.eclipse.ui.file.save",1336045123245
activated,view,org.eclipse.ui.ide,3.7.0.v20110928-1505,"org.eclipse.ui.views.ResourceNavigator",1336045124735
deactivated,workbench,org.eclipse.ui.workbench,3.7.1.v20120104-1859,"",1336045126260
activated,workbench,org.eclipse.ui.workbench,3.7.1.v20120104-1859,"",1336045129003
opened,editor,org.eclipse.cdt.ui,5.3.2.201202111925,"org.eclipse.cdt.ui.editor.CEditor",1336045129063
activated,editor,org.eclipse.cdt.ui,5.3.2.201202111925,"org.eclipse.cdt.ui.editor.CEditor",1336045129128
executed,command,org.eclipse.ui,3.7.0.v20110928-1505,"org.eclipse.ui.file.save",1336045161015
activated,view,org.eclipse.ui.ide,3.7.0.v20110928-1505,"org.eclipse.ui.views.ResourceNavigator",1336045163460
deactivated,workbench,org.eclipse.ui.workbench,3.7.1.v20120104-1859,"",1336045164207
started,bundle,org.eclipse.cdt.launch,7.0.0.201202111925,"org.eclipse.cdt.launch",1336045168534
executed,command,org.eclipse.ltk.ui.refactoring,3.6.0.v20110928-1453,"org.eclipse.ltk.ui.refactoring.commands.renameResource",1336045168655
executed,command,org.eclipse.ui,3.7.0.v20110928-1505,"org.eclipse.ui.edit.rename",1336045168655
activated,workbench,org.eclipse.ui.workbench,3.7.1.v20120104-1859,"",1336045168667
activated,editor,org.eclipse.cdt.ui,5.3.2.201202111925,"org.eclipse.cdt.ui.editor.CEditor",1336045169749
executed,command,org.eclipse.ui,3.7.0.v20110928-1505,"org.eclipse.ui.file.save",1336045172816
activated,view,org.eclipse.ui.ide,3.7.0.v20110928-1505,"org.eclipse.ui.views.ResourceNavigator",1336045176559
deactivated,workbench,org.eclipse.ui.workbench,3.7.1.v20120104-1859,"",1336045178871
activated,workbench,org.eclipse.ui.workbench,3.7.1.v20120104-1859,"",1336045187716
opened,editor,org.eclipse.cdt.ui,5.3.2.201202111925,"org.eclipse.cdt.ui.editor.CEditor",1336045187783
activated,editor,org.eclipse.cdt.ui,5.3.2.201202111925,"org.eclipse.cdt.ui.editor.CEditor",1336045187846
executed,command,org.eclipse.ui.workbench.texteditor,3.7.0.v20110928-1504,"org.eclipse.ui.edit.text.select.wordPrevious",1336045203354
executed,command,org.eclipse.ui,3.7.0.v20110928-1505,"org.eclipse.ui.file.save",1336045205736
executed,command,org.eclipse.ui,3.7.0.v20110928-1505,"org.eclipse.ui.file.save",1336045210796
executed,command,org.eclipse.ui.workbench.texteditor,3.7.0.v20110928-1504,"org.eclipse.ui.edit.text.goto.lineStart",1336045215660
executed,command,org.eclipse.ui.workbench.texteditor,3.7.0.v20110928-1504,"org.eclipse.ui.edit.text.smartEnter",1336045222874
executed,command,org.eclipse.ui,3.7.0.v20110928-1505,"org.eclipse.ui.file.save",1336045225277
executed,command,org.eclipse.ui.workbench.texteditor,3.7.0.v20110928-1504,"org.eclipse.ui.edit.text.smartEnterInverse",1336045228484
executed,command,org.eclipse.ui.workbench.texteditor,3.7.0.v20110928-1504,"org.eclipse.ui.edit.text.smartEnterInverse",1336045243617
executed,command,org.eclipse.ui.workbench.texteditor,3.7.0.v20110928-1504,"org.eclipse.ui.edit.text.smartEnter",1336045247802
executed,command,org.eclipse.ui,3.7.0.v20110928-1505,"org.eclipse.ui.file.save",1336045250847
started,bundle,org.eclipse.linuxtools.profiling.launch,0.9.0.201202152032,"org.eclipse.linuxtools.profiling.launch",1336045257606
started,bundle,org.eclipse.linuxtools.callgraph.launch,0.9.0.201202152032,"org.eclipse.linuxtools.callgraph.launch",1336045257606
started,bundle,org.eclipse.linuxtools.oprofile.launch,0.3.1.201202152032,"org.eclipse.linuxtools.oprofile.launch",1336045257625
started,bundle,org.eclipse.linuxtools.valgrind.core,0.9.0.201202152032,"org.eclipse.linuxtools.valgrind.core",1336045257659
started,bundle,org.eclipse.linuxtools.valgrind.launch,0.9.0.201202152032,"org.eclipse.linuxtools.valgrind.launch",1336045257670
deactivated,workbench,org.eclipse.ui.workbench,3.7.1.v20120104-1859,"",1336045258378
activated,workbench,org.eclipse.ui.workbench,3.7.1.v20120104-1859,"",1336045258459
deactivated,workbench,org.eclipse.ui.workbench,3.7.1.v20120104-1859,"",1336045258479
activated,workbench,org.eclipse.ui.workbench,3.7.1.v20120104-1859,"",1336045259862
activated,view,org.eclipse.ui.ide,3.7.0.v20110928-1505,"org.eclipse.ui.views.ResourceNavigator",1336045260671
executed,command,org.eclipse.ui.ide,3.7.0.v20110928-1505,"org.eclipse.ui.project.buildAll",1336045263097
opened,view,org.eclipse.ui.console,3.5.100.v20111007_r372,"org.eclipse.ui.console.ConsoleView",1336045263492
deactivated,workbench,org.eclipse.ui.workbench,3.7.1.v20120104-1859,"",1336045263547
activated,workbench,org.eclipse.ui.workbench,3.7.1.v20120104-1859,"",1336045265014
activated,view,org.eclipse.ui.ide,3.7.0.v20110928-1505,"org.eclipse.ui.views.ProblemView",1336045270043
activated,editor,org.eclipse.cdt.ui,5.3.2.201202111925,"org.eclipse.cdt.ui.editor.CEditor",1336045271993
activated,view,org.eclipse.ui.ide,3.7.0.v20110928-1505,"org.eclipse.ui.views.ResourceNavigator",1336045282226
opened,editor,org.eclipse.cdt.make.ui,7.1.2.201202111925,"org.eclipse.cdt.make.editor",1336045283791
activated,editor,org.eclipse.cdt.make.ui,7.1.2.201202111925,"org.eclipse.cdt.make.editor",1336045283931
activated,view,org.eclipse.ui.ide,3.7.0.v20110928-1505,"org.eclipse.ui.views.ResourceNavigator",1336045288966
activated,editor,org.eclipse.cdt.make.ui,7.1.2.201202111925,"org.eclipse.cdt.make.editor",1336045294059
deactivated,workbench,org.eclipse.ui.workbench,3.7.1.v20120104-1859,"",1336045312770
closed,workbench,org.eclipse.ui.workbench,3.7.1.v20120104-1859,"",1336045313793
stopped,bundle,org.eclipse.linuxtools.valgrind.massif,0.9.0.201202152032,"org.eclipse.linuxtools.valgrind.massif",1336045315134
stopped,bundle,org.eclipse.birt.chart.device.svg,3.7.2.v20120213,"org.eclipse.birt.chart.device.svg",1336045315135
stopped,bundle,org.eclipse.birt.chart.device.extension,3.7.2.v20120213,"org.eclipse.birt.chart.device.extension",1336045315135
stopped,bundle,org.eclipse.birt.chart.device.swt,3.7.2.v20120213,"org.eclipse.birt.chart.device.swt",1336045315136
stopped,bundle,org.eclipse.birt.chart.engine.extension,3.7.2.v20120213,"org.eclipse.birt.chart.engine.extension",1336045315137
stopped,bundle,org.eclipse.linuxtools.gcov.core,4.1.1.201202152032,"org.eclipse.linuxtools.gcov.core",1336045315138
stopped,bundle,org.eclipse.linuxtools.gprof,4.0.0.201202152032,"org.eclipse.linuxtools.gprof",1336045315139
stopped,bundle,org.eclipse.linuxtools.dataviewers.charts,4.1.0.201202152032,"org.eclipse.linuxtools.dataviewers.charts",1336045315140
stopped,bundle,org.eclipse.birt.chart.ui,3.7.2.v20120213,"org.eclipse.birt.chart.ui",1336045315148
stopped,bundle,org.eclipse.linuxtools.systemtap.ui.dashboardextension,0.3.0.201202152032,"org.eclipse.linuxtools.systemtap.ui.dashboardextension",1336045315149
stopped,bundle,org.eclipse.linuxtools.systemtap.ui.dashboard,0.3.0.201202152032,"org.eclipse.linuxtools.systemtap.ui.dashboard",1336045315150
stopped,bundle,org.eclipse.linuxtools.systemtap.ui.graphicalrun,0.3.0.201202152032,"org.eclipse.linuxtools.systemtap.ui.graphicalrun",1336045315151
stopped,bundle,org.eclipse.linuxtools.systemtap.ui.ide,0.3.0.201202152032,"org.eclipse.linuxtools.systemtap.ui.ide",1336045315152
stopped,bundle,org.eclipse.linuxtools.systemtap.ui.graphing,0.3.0.201202152032,"org.eclipse.linuxtools.systemtap.ui.graphing",1336045315153
stopped,bundle,org.eclipse.linuxtools.systemtap.ui.graphingapi.ui,0.3.0.201202152032,"org.eclipse.linuxtools.systemtap.ui.graphingapi.ui",1336045315154
stopped,bundle,org.eclipse.birt.chart.engine,3.7.2.v20120213,"org.eclipse.birt.chart.engine",1336045315155
stopped,bundle,org.eclipse.birt.core.ui,3.7.2.v20120213,"org.eclipse.birt.core.ui",1336045315158
stopped,bundle,org.eclipse.birt.data.aggregation,3.7.2.v20120213,"org.eclipse.birt.data.aggregation",1336045315158
stopped,bundle,org.eclipse.birt.data,3.7.2.v20120213,"org.eclipse.birt.data",1336045315160
stopped,bundle,org.eclipse.birt.core,3.7.2.v20120213,"org.eclipse.birt.core",1336045315161
stopped,bundle,org.eclipse.cdt.build.crossgcc,1.0.2.201202111925,"org.eclipse.cdt.build.crossgcc",1336045315161
stopped,bundle,org.eclipse.cdt.codan.checkers.ui,1.0.0.201202111925,"org.eclipse.cdt.codan.checkers.ui",1336045315161
stopped,bundle,org.eclipse.cdt.codan.checkers,1.0.1.201202111925,"org.eclipse.cdt.codan.checkers",1336045315161
stopped,bundle,org.eclipse.cdt.codan.ui.cxx,2.0.0.201202111925,"org.eclipse.cdt.codan.ui.cxx",1336045315162
stopped,bundle,org.eclipse.cdt.codan.core.cxx,1.0.0.201202111925,"org.eclipse.cdt.codan.core.cxx",1336045315162
stopped,bundle,org.eclipse.cdt.launch.remote,2.3.0.201202111925,"org.eclipse.cdt.launch.remote",1336045315162
stopped,bundle,org.eclipse.cdt.debug.mi.ui,6.1.1.201202111925,"org.eclipse.cdt.debug.mi.ui",1336045315163
stopped,bundle,org.eclipse.cdt.debug.mi.core,7.1.1.201202111925,"org.eclipse.cdt.debug.mi.core",1336045315164
stopped,bundle,org.eclipse.cdt.debug.ui.memory.memorybrowser,1.2.100.201202111925,"org.eclipse.cdt.debug.ui.memory.memorybrowser",1336045315166
stopped,bundle,org.eclipse.cdt.debug.ui.memory.search,1.2.1.201202111925,"org.eclipse.cdt.debug.ui.memory.search",1336045315167
stopped,bundle,org.eclipse.cdt.dsf.gdb.ui,2.2.1.201202111925,"org.eclipse.cdt.dsf.gdb.ui",1336045315168
stopped,bundle,org.eclipse.cdt.dsf.ui,2.2.1.201202111925,"org.eclipse.cdt.dsf.ui",1336045315171
stopped,bundle,org.eclipse.cdt.gdb.ui,7.0.0.201202111925,"org.eclipse.cdt.gdb.ui",1336045315171
stopped,bundle,org.eclipse.cdt.dsf.gdb,4.0.2.201202111925,"org.eclipse.cdt.dsf.gdb",1336045315173
stopped,bundle,org.eclipse.linuxtools.callgraph.launch,0.9.0.201202152032,"org.eclipse.linuxtools.callgraph.launch",1336045315173
stopped,bundle,org.eclipse.linuxtools.oprofile.launch,0.3.1.201202152032,"org.eclipse.linuxtools.oprofile.launch",1336045315173
stopped,bundle,org.eclipse.linuxtools.valgrind.cachegrind,0.9.0.201202152032,"org.eclipse.linuxtools.valgrind.cachegrind",1336045315174
stopped,bundle,org.eclipse.linuxtools.valgrind.helgrind,0.9.0.201202152032,"org.eclipse.linuxtools.valgrind.helgrind",1336045315174
stopped,bundle,org.eclipse.linuxtools.valgrind.memcheck,0.9.0.201202152032,"org.eclipse.linuxtools.valgrind.memcheck",1336045315175
stopped,bundle,org.eclipse.linuxtools.valgrind.launch,0.9.0.201202152032,"org.eclipse.linuxtools.valgrind.launch",1336045315175
stopped,bundle,org.eclipse.linuxtools.profiling.launch,0.9.0.201202152032,"org.eclipse.linuxtools.profiling.launch",1336045315175
stopped,bundle,org.eclipse.cdt.launch,7.0.0.201202111925,"org.eclipse.cdt.launch",1336045315176
stopped,bundle,org.eclipse.linuxtools.valgrind.ui,0.9.0.201202152032,"org.eclipse.linuxtools.valgrind.ui",1336045315176
stopped,bundle,org.eclipse.cdt.debug.ui,7.1.2.201202111925,"org.eclipse.cdt.debug.ui",1336045315176
stopped,bundle,org.eclipse.cdt.debug.ui.memory.traditional,1.2.1.201202111925,"org.eclipse.cdt.debug.ui.memory.traditional",1336045315177
stopped,bundle,org.eclipse.cdt.dsf,2.2.0.201202111925,"org.eclipse.cdt.dsf",1336045315183
stopped,bundle,org.eclipse.linuxtools.binutils,4.0.0.201202152032,"org.eclipse.linuxtools.binutils",1336045315210
stopped,bundle,org.eclipse.linuxtools.callgraph,0.9.0.201202152032,"org.eclipse.linuxtools.callgraph",1336045315228
stopped,bundle,org.eclipse.linuxtools.callgraph.core,0.9.0.201202152032,"org.eclipse.linuxtools.callgraph.core",1336045315247
stopped,bundle,org.eclipse.linuxtools.oprofile.ui,0.3.1.201202152032,"org.eclipse.linuxtools.oprofile.ui",1336045315268
stopped,bundle,org.eclipse.linuxtools.profiling.ui,0.9.0.201202152032,"org.eclipse.linuxtools.profiling.ui",1336045315276
stopped,bundle,org.eclipse.cdt.debug.core,7.1.0.201202111925,"org.eclipse.cdt.debug.core",1336045315276
stopped,bundle,org.eclipse.linuxtools.cdt.autotools.ui,1.0.1.201202152032,"org.eclipse.linuxtools.cdt.autotools.ui",1336045315276
stopped,bundle,org.eclipse.linuxtools.cdt.autotools.core,1.0.2.201202152032,"org.eclipse.linuxtools.cdt.autotools.core",1336045315277
stopped,bundle,org.eclipse.cdt.managedbuilder.ui,8.0.2.201202111925,"org.eclipse.cdt.managedbuilder.ui",1336045315277
stopped,bundle,org.eclipse.cdt.make.ui,7.1.2.201202111925,"org.eclipse.cdt.make.ui",1336045315277
stopped,bundle,org.eclipse.cdt.managedbuilder.gnu.ui,8.0.2.201202111925,"org.eclipse.cdt.managedbuilder.gnu.ui",1336045315277
stopped,bundle,org.eclipse.cdt.managedbuilder.core,8.0.2.201202111925,"org.eclipse.cdt.managedbuilder.core",1336045315278
stopped,bundle,org.eclipse.cdt.make.core,7.1.2.201202111925,"org.eclipse.cdt.make.core",1336045315278
stopped,bundle,org.eclipse.cdt.mylyn.ui,3.6.0.v20110608-1400,"org.eclipse.cdt.mylyn.ui",1336045315278
stopped,bundle,org.eclipse.cdt.codan.ui,2.0.1.201202111925,"org.eclipse.cdt.codan.ui",1336045315278
stopped,bundle,org.eclipse.linuxtools.cdt.libhover,1.1.0.201202152032,"org.eclipse.linuxtools.cdt.libhover",1336045315278
stopped,bundle,org.eclipse.linuxtools.rpm.rpmlint,0.4.3.201202152032,"org.eclipse.linuxtools.rpm.rpmlint",1336045315295
stopped,bundle,org.eclipse.linuxtools.rpm.ui.editor,0.4.3.201202152032,"org.eclipse.linuxtools.rpm.ui.editor",1336045315295
stopped,bundle,org.eclipse.linuxtools.changelog.core,2.7.0.201202152032,"org.eclipse.linuxtools.changelog.core",1336045315311
stopped,bundle,org.eclipse.linuxtools.dataviewers.annotatedsourceeditor,4.1.0.201202152032,"org.eclipse.linuxtools.dataviewers.annotatedsourceeditor",1336045315312
stopped,bundle,org.eclipse.cdt.ui,5.3.2.201202111925,"org.eclipse.cdt.ui",1336045315312
stopped,bundle,org.eclipse.linuxtools.valgrind.core,0.9.0.201202152032,"org.eclipse.linuxtools.valgrind.core",1336045315312
stopped,bundle,org.eclipse.cdt.core,5.3.2.201202111925,"org.eclipse.cdt.core",1336045315312
stopped,bundle,org.eclipse.egit.ui,1.3.0.201202151440-r,"org.eclipse.egit.ui",1336045315312
stopped,bundle,org.eclipse.egit.core,1.3.0.201202151440-r,"org.eclipse.egit.core",1336045315312
activated,perspective,org.eclipse.cdt.ui,,"org.eclipse.cdt.ui.CPerspective",1336049146897
started,bundle,org.eclipse.osgi,3.7.2.v20120110-1415,"org.eclipse.osgi",1336049146899
started,bundle,org.eclipse.equinox.simpleconfigurator,1.0.200.v20110815-1438,"org.eclipse.equinox.simpleconfigurator",1336049146900
started,bundle,com.ibm.icu,4.4.2.v20110823,"com.ibm.icu",1336049146900
started,bundle,org.eclipse.cdt.build.crossgcc,1.0.2.201202111925,"org.eclipse.cdt.build.crossgcc",1336049146901
started,bundle,org.eclipse.cdt.codan.checkers,1.0.1.201202111925,"org.eclipse.cdt.codan.checkers",1336049146902
started,bundle,org.eclipse.cdt.codan.core,2.0.0.201202111925,"org.eclipse.cdt.codan.core",1336049146902
started,bundle,org.eclipse.cdt.codan.core.cxx,1.0.0.201202111925,"org.eclipse.cdt.codan.core.cxx",1336049146902
started,bundle,org.eclipse.cdt.codan.ui.cxx,2.0.0.201202111925,"org.eclipse.cdt.codan.ui.cxx",1336049146903
started,bundle,org.eclipse.cdt.core,5.3.2.201202111925,"org.eclipse.cdt.core",1336049146903
started,bundle,org.eclipse.cdt.make.core,7.1.2.201202111925,"org.eclipse.cdt.make.core",1336049146903
started,bundle,org.eclipse.cdt.make.ui,7.1.2.201202111925,"org.eclipse.cdt.make.ui",1336049146904
started,bundle,org.eclipse.cdt.managedbuilder.core,8.0.2.201202111925,"org.eclipse.cdt.managedbuilder.core",1336049146904
started,bundle,org.eclipse.cdt.ui,5.3.2.201202111925,"org.eclipse.cdt.ui",1336049146905
started,bundle,org.eclipse.compare,3.5.202.R37x_v20111109-0800,"org.eclipse.compare",1336049146906
started,bundle,org.eclipse.compare.core,3.5.200.I20110208-0800,"org.eclipse.compare.core",1336049146906
started,bundle,org.eclipse.core.contenttype,3.4.100.v20110423-0524,"org.eclipse.core.contenttype",1336049146907
started,bundle,org.eclipse.core.databinding.observable,1.4.0.I20110222-0800,"org.eclipse.core.databinding.observable",1336049146907
started,bundle,org.eclipse.core.expressions,3.4.300.v20110228,"org.eclipse.core.expressions",1336049146908
started,bundle,org.eclipse.core.filebuffers,3.5.200.v20110928-1504,"org.eclipse.core.filebuffers",1336049146908
started,bundle,org.eclipse.core.filesystem,1.3.100.v20110423-0524,"org.eclipse.core.filesystem",1336049146909
started,bundle,org.eclipse.core.jobs,3.5.101.v20120113-1953,"org.eclipse.core.jobs",1336049146910
started,bundle,org.eclipse.core.net,1.2.100.I20110511-0800,"org.eclipse.core.net",1336049146913
started,bundle,org.eclipse.core.resources,3.7.101.v20120125-1505,"org.eclipse.core.resources",1336049146913
started,bundle,org.eclipse.core.runtime,3.7.0.v20110110,"org.eclipse.core.runtime",1336049146913
started,bundle,org.eclipse.core.runtime.compatibility,3.2.100.v20100505,"org.eclipse.core.runtime.compatibility",1336049146914
started,bundle,org.eclipse.core.runtime.compatibility.auth,3.2.200.v20110110,"org.eclipse.core.runtime.compatibility.auth",1336049146914
started,bundle,org.eclipse.core.variables,3.2.500.v20110928-1503,"org.eclipse.core.variables",1336049146915
started,bundle,org.eclipse.debug.core,3.7.1.v20111129-2031,"org.eclipse.debug.core",1336049146915
started,bundle,org.eclipse.egit.core,1.3.0.201202151440-r,"org.eclipse.egit.core",1336049146917
started,bundle,org.eclipse.egit.ui,1.3.0.201202151440-r,"org.eclipse.egit.ui",1336049146918
started,bundle,org.eclipse.epp.mpc.ui,1.1.1.I20110907-0947,"org.eclipse.epp.mpc.ui",1336049146920
started,bundle,org.eclipse.epp.usagedata.gathering,1.3.1.R201106061540,"org.eclipse.epp.usagedata.gathering",1336049146920
started,bundle,org.eclipse.epp.usagedata.recording,1.3.1.R201106061540,"org.eclipse.epp.usagedata.recording",1336049146923
started,bundle,org.eclipse.equinox.app,1.3.100.v20110321,"org.eclipse.equinox.app",1336049146923
started,bundle,org.eclipse.equinox.common,3.6.0.v20110523,"org.eclipse.equinox.common",1336049146924
started,bundle,org.eclipse.equinox.ds,1.3.1.R37x_v20110701,"org.eclipse.equinox.ds",1336049146924
started,bundle,org.eclipse.equinox.event,1.2.100.v20110502,"org.eclipse.equinox.event",1336049146926
started,bundle,org.eclipse.equinox.p2.core,2.1.1.v20120113-1346,"org.eclipse.equinox.p2.core",1336049146927
started,bundle,org.eclipse.equinox.p2.directorywatcher,1.0.300.v20110815-1419,"org.eclipse.equinox.p2.directorywatcher",1336049146927
started,bundle,org.eclipse.equinox.p2.engine,2.1.1.R37x_v20111003,"org.eclipse.equinox.p2.engine",1336049146928
started,bundle,org.eclipse.equinox.p2.metadata,2.1.0.v20110815-1419,"org.eclipse.equinox.p2.metadata",1336049146929
started,bundle,org.eclipse.equinox.p2.metadata.repository,1.2.0.v20110815-1419,"org.eclipse.equinox.p2.metadata.repository",1336049146930
started,bundle,org.eclipse.equinox.p2.operations,2.1.1.R37x_v20111111,"org.eclipse.equinox.p2.operations",1336049146930
started,bundle,org.eclipse.equinox.p2.reconciler.dropins,1.1.100.v20110815-1419,"org.eclipse.equinox.p2.reconciler.dropins",1336049146931
started,bundle,org.eclipse.equinox.p2.repository,2.1.1.v20120113-1346,"org.eclipse.equinox.p2.repository",1336049146931
started,bundle,org.eclipse.equinox.p2.ui.sdk.scheduler,1.0.100.v20110815-1419,"org.eclipse.equinox.p2.ui.sdk.scheduler",1336049146932
started,bundle,org.eclipse.equinox.p2.updatechecker,1.1.200.v20110815-1419,"org.eclipse.equinox.p2.updatechecker",1336049146932
started,bundle,org.eclipse.equinox.preferences,3.4.2.v20120111-2020,"org.eclipse.equinox.preferences",1336049146933
started,bundle,org.eclipse.equinox.registry,3.5.101.R37x_v20110810-1611,"org.eclipse.equinox.registry",1336049146933
started,bundle,org.eclipse.equinox.security,1.1.1.R37x_v20110822-1018,"org.eclipse.equinox.security",1336049146934
started,bundle,org.eclipse.equinox.util,1.0.300.v20110502,"org.eclipse.equinox.util",1336049146934
started,bundle,org.eclipse.help,3.5.100.v20110426,"org.eclipse.help",1336049146935
started,bundle,org.eclipse.jdt.core,3.7.3.v20120119-1537,"org.eclipse.jdt.core",1336049146935
started,bundle,org.eclipse.jdt.core.manipulation,1.4.0.v20110928-1453,"org.eclipse.jdt.core.manipulation",1336049146936
started,bundle,org.eclipse.jdt.ui,3.7.2.v20120109-1427,"org.eclipse.jdt.ui",1336049146938
started,bundle,org.eclipse.jface,3.7.0.v20110928-1505,"org.eclipse.jface",1336049146938
started,bundle,org.eclipse.jgit,1.3.0.201202151440-r,"org.eclipse.jgit",1336049146939
started,bundle,org.eclipse.jsch.core,1.1.300.I20110514-0800,"org.eclipse.jsch.core",1336049146939
started,bundle,org.eclipse.linuxtools.cdt.autotools.core,1.0.2.201202152032,"org.eclipse.linuxtools.cdt.autotools.core",1336049146940
started,bundle,org.eclipse.linuxtools.systemtap.ui.dashboardextension,0.3.0.201202152032,"org.eclipse.linuxtools.systemtap.ui.dashboardextension",1336049146940
started,bundle,org.eclipse.linuxtools.systemtap.ui.editor,0.3.0.201202152032,"org.eclipse.linuxtools.systemtap.ui.editor",1336049146941
started,bundle,org.eclipse.linuxtools.systemtap.ui.graphicalrun,0.3.0.201202152032,"org.eclipse.linuxtools.systemtap.ui.graphicalrun",1336049146941
started,bundle,org.eclipse.ltk.core.refactoring,3.5.201.r372_v20111101-0700,"org.eclipse.ltk.core.refactoring",1336049146942
started,bundle,org.eclipse.ltk.ui.refactoring,3.6.0.v20110928-1453,"org.eclipse.ltk.ui.refactoring",1336049146942
started,bundle,org.eclipse.mylyn.bugzilla.core,3.6.5.v20120123-0100,"org.eclipse.mylyn.bugzilla.core",1336049146943
started,bundle,org.eclipse.mylyn.bugzilla.ui,3.6.0.v20110608-1400,"org.eclipse.mylyn.bugzilla.ui",1336049146943
started,bundle,org.eclipse.mylyn.commons.identity,0.8.0.v20110608-1400,"org.eclipse.mylyn.commons.identity",1336049146944
started,bundle,org.eclipse.mylyn.commons.net,3.6.0.v20110608-1400,"org.eclipse.mylyn.commons.net",1336049146944
started,bundle,org.eclipse.mylyn.commons.ui,3.6.1.v20110720-0100,"org.eclipse.mylyn.commons.ui",1336049146944
started,bundle,org.eclipse.mylyn.context.core,3.6.1.v20110720-0100,"org.eclipse.mylyn.context.core",1336049146945
started,bundle,org.eclipse.mylyn.context.ui,3.6.1.v20120112-0100,"org.eclipse.mylyn.context.ui",1336049146946
started,bundle,org.eclipse.mylyn.monitor.ui,3.6.0.v20110608-1400,"org.eclipse.mylyn.monitor.ui",1336049146946
started,bundle,org.eclipse.mylyn.tasks.ui,3.6.5.v20120215-0100,"org.eclipse.mylyn.tasks.ui",1336049146947
started,bundle,org.eclipse.mylyn.team.ui,3.6.1.v20110825-0100,"org.eclipse.mylyn.team.ui",1336049146947
started,bundle,org.eclipse.search,3.7.0.v20110928-1504,"org.eclipse.search",1336049146948
started,bundle,org.eclipse.team.core,3.6.0.I20110525-0800,"org.eclipse.team.core",1336049146948
started,bundle,org.eclipse.team.cvs.core,3.3.400.I20110510-0800,"org.eclipse.team.cvs.core",1336049146949
started,bundle,org.eclipse.team.cvs.ui,3.3.401.v20120126-1227,"org.eclipse.team.cvs.ui",1336049146949
started,bundle,org.eclipse.team.ui,3.6.101.R37x_v20111109-0800,"org.eclipse.team.ui",1336049146950
started,bundle,org.eclipse.ui,3.7.0.v20110928-1505,"org.eclipse.ui",1336049146951
started,bundle,org.eclipse.ui.console,3.5.100.v20111007_r372,"org.eclipse.ui.console",1336049146952
started,bundle,org.eclipse.ui.editors,3.7.0.v20110928-1504,"org.eclipse.ui.editors",1336049146952
started,bundle,org.eclipse.ui.forms,3.5.101.v20111011-1919,"org.eclipse.ui.forms",1336049146952
started,bundle,org.eclipse.ui.ide,3.7.0.v20110928-1505,"org.eclipse.ui.ide",1336049146953
started,bundle,org.eclipse.ui.navigator,3.5.101.v20120106-1355,"org.eclipse.ui.navigator",1336049146953
started,bundle,org.eclipse.ui.net,1.2.100.v20111208-1155,"org.eclipse.ui.net",1336049146954
started,bundle,org.eclipse.ui.views,3.6.0.v20110928-1505,"org.eclipse.ui.views",1336049146955
started,bundle,org.eclipse.ui.workbench,3.7.1.v20120104-1859,"org.eclipse.ui.workbench",1336049146955
started,bundle,org.eclipse.ui.workbench.texteditor,3.7.0.v20110928-1504,"org.eclipse.ui.workbench.texteditor",1336049146956
started,bundle,org.eclipse.update.configurator,3.3.100.v20100512,"org.eclipse.update.configurator",1336049146956
started,bundle,org.eclipse.update.core,3.2.500.v20110330,"org.eclipse.update.core",1336049146957
started,bundle,org.eclipse.update.scheduler,3.2.300.v20100512,"org.eclipse.update.scheduler",1336049146957
started,bundle,de.loskutov.anyedit.AnyEditTools,2.4.1.201204040004,"de.loskutov.anyedit.AnyEditTools",1336049146958
started,bundle,com.collabnet.subversion.merge,3.0.8,"com.collabnet.subversion.merge",1336049146958
started,bundle,org.tigris.subversion.clientadapter,1.8.2,"org.tigris.subversion.clientadapter",1336049146959
started,bundle,org.tigris.subversion.subclipse.core,1.8.8,"org.tigris.subversion.subclipse.core",1336049146959
started,bundle,org.tigris.subversion.subclipse.mylyn,3.0.0,"org.tigris.subversion.subclipse.mylyn",1336049146960
started,bundle,org.tigris.subversion.subclipse.tools.usage,1.1.0,"org.tigris.subversion.subclipse.tools.usage",1336049146960
started,bundle,org.tigris.subversion.subclipse.ui,1.8.8,"org.tigris.subversion.subclipse.ui",1336049146961
